Division,WeightClassKg,Place,Name,Team,BodyweightKg,Best3SquatKg,Best3BenchKg,Best3DeadliftKg,TotalKg,Equipment,Event,Sex,BirthDate
Boys,51.71,1,Julio Velasco,Brownsville Lopez,45.18,56.7,36.29,79.38,172.37,Single-ply,SBD,M,
Boys,55.79,1,Erick Estrella,Brownsville Lopez,53.71,158.76,77.11,172.37,408.23,Single-ply,SBD,M,
Boys,59.87,1,Logan Garcia #2,Brownsville Lopez,59.87,104.33,72.57,113.4,290.3,Single-ply,SBD,M,
Boys,59.87,2,Alex Martinez #13,Brownsville Lopez,59.06,102.06,61.23,102.06,265.35,Single-ply,SBD,M,
Boys,67.13,1,JR Hernandez,Brownsville Rivera,59.96,170.1,102.06,185.97,458.13,Single-ply,SBD,M,
Boys,74.84,1,Jose E Hernandez,Brownsville Rivera,71.94,176.9,113.4,190.51,480.81,Single-ply,SBD,M,
Boys,74.84,2,Esau Gutierrez,Brownsville Rivera,69.67,170.1,122.47,127.01,419.57,Single-ply,SBD,M,
Boys,74.84,3,Gabriel Andrade,Brownsville Rivera,68.13,147.42,92.99,151.95,392.36,Single-ply,SBD,M,
Boys,74.84,4,Oscar Gonzalez,Brownsville Rivera,71.67,122.47,63.5,117.93,303.91,Single-ply,SBD,M,
Boys,82.1,1,Andrew Rader,Brownsville Lopez,80.1,136.08,72.57,156.49,365.14,Single-ply,SBD,M,
Boys,82.1,2,Isaiah Lucio,Brownsville Lopez,80.74,111.13,65.77,142.88,319.78,Single-ply,SBD,M,
Boys,82.1,3,Lucio Garcia,Brownsville Lopez,81.56,102.06,61.23,115.67,278.96,Single-ply,SBD,M,
Boys,89.81,1,Guadalupe Salinas,Brownsville Rivera,88,201.85,108.86,208.65,519.36,Single-ply,SBD,M,
Boys,89.81,2,Eric Machado,Brownsville Lopez,84.91,104.33,79.38,145.15,328.85,Single-ply,SBD,M,
Boys,89.81,3,Jacob Cortinas,Brownsville Lopez,86.82,102.06,61.23,117.93,281.23,Single-ply,SBD,M,
Boys,99.79,1,Mathew Garza,Brownsville Rivera,96.43,235.87,147.42,244.94,628.23,Single-ply,SBD,M,
Boys,99.79,2,Jesus Hernandez #8,Brownsville Rivera,98.97,265.35,142.88,,408.23,Single-ply,SB,M,
Boys,99.79,3,Manuel De La Cruz,Brownsville Lopez,93.53,117.93,74.84,149.69,342.46,Single-ply,SBD,M,
Boys,99.79,4,Juan Rosendo,Brownsville Lopez,95.25,104.33,68.04,154.22,326.59,Single-ply,SBD,M,
Boys,99.79,5,Issac Vasquez,Brownsville Lopez,98.16,70.31,61.23,97.52,229.06,Single-ply,SBD,M,
Boys,109.77,1,Hector Guerrero,Brownsville Rivera,108.59,213.19,124.74,195.04,532.97,Single-ply,SBD,M,
Boys,109.77,2,Omar Cervantes,Brownsville Lopez,103.6,151.95,104.33,165.56,421.84,Single-ply,SBD,M,
Boys,109.77,3,Carlos Delgado,Brownsville Lopez,103.33,136.08,79.38,197.31,412.77,Single-ply,SBD,M,
Boys,109.77,DQ,Octavio Mata,Brownsville Lopez,103.87,115.67,83.91,,,Single-ply,SBD,M,
Boys,124.74,1,Jesus Salas,Brownsville Rivera,110.5,179.17,97.52,174.63,451.32,Single-ply,SBD,M,
Boys,124.74,2,Reymundo Rios,Brownsville Lopez,118.57,106.59,83.91,181.44,371.95,Single-ply,SBD,M,
Boys,124.74,3,Oscar Nieves,Brownsville Lopez,117.93,117.93,83.91,158.76,360.61,Single-ply,SBD,M,
Boys,124.74,4,Brandon Longoria,Brownsville Lopez,124.38,111.13,65.77,102.06,278.96,Single-ply,SBD,M,
Boys,124.74,5,Ezequiel Torres,Brownsville Rivera,124.19,113.4,52.16,79.38,244.94,Single-ply,SBD,M,
Boys,139.71,1,Abraham Lozano,Brownsville Rivera,128.28,226.8,111.13,213.19,551.11,Single-ply,SBD,M,
Boys,139.71,2,Diego Castillo,Brownsville Lopez,128.37,158.76,72.57,183.7,415.04,Single-ply,SBD,M,
