Division,WeightClassKg,Place,Name,Team,BodyweightKg,Best3SquatKg,Best3BenchKg,Best3DeadliftKg,TotalKg,Equipment,Event,Sex
Boys,51.71,1,Dylan Elkins,Needville,51.62,140.61,99.79,145.15,385.55,Single-ply,SBD,M
Boys,51.71,2,Regan Ficken,Orangefield,50.53,129.27,56.7,106.59,292.57,Single-ply,SBD,M
Boys,51.71,3,Windsor Nguyen,Bridge City,51.71,115.67,56.7,120.2,292.57,Single-ply,SBD,M
Boys,51.71,4,Wren Miller,Bridge City,51.07,111.13,61.23,117.93,290.3,Single-ply,SBD,M
Boys,51.71,5,Alfred Aparicio,Palacios,50.53,102.06,58.97,106.59,267.62,Single-ply,SBD,M
Boys,51.71,6,Sean Loyola,Stafford,50.35,102.06,49.9,113.4,265.35,Single-ply,SBD,M
Boys,51.71,7,Kz Smith,Coldspring-Oakhurst,47.45,102.06,49.9,111.13,263.08,Single-ply,SBD,M
Boys,51.71,8,Carmichael Wiley,Orangefield,51.53,77.11,58.97,95.25,231.33,Single-ply,SBD,M
Boys,51.71,DQ,Kenneth Kirbow,Kirbyville,45.27,,,,,Single-ply,SBD,M
Boys,51.71,DQ,Corey Frazier,Jasper,44.18,72.57,34.02,,,Single-ply,SBD,M
Boys,55.79,1,Michael Latapie,Palacios,55.07,136.08,106.59,142.88,385.55,Single-ply,SBD,M
Boys,55.79,2,Greg Gomez,West Columbia,55.79,133.81,88.45,145.15,367.41,Single-ply,SBD,M
Boys,55.79,3,Josh Courvelle,Shepherd,54.16,115.67,65.77,140.61,322.05,Single-ply,SBD,M
Boys,55.79,4,Jacob Ryder,Needville,55.52,115.67,72.57,133.81,322.05,Single-ply,SBD,M
Boys,55.79,5,Harley Hnatek,Splendora,54.25,117.93,63.5,136.08,317.51,Single-ply,SBD,M
Boys,55.79,6,Ashtin Reed,Bridge City,52.16,108.86,72.57,122.47,303.91,Single-ply,SBD,M
Boys,55.79,7,Tanner Royal,Bridge City,54.07,99.79,49.9,136.08,285.76,Single-ply,SBD,M
Boys,55.79,8,Isaac Cervantes,Needville,54.98,106.59,58.97,115.67,281.23,Single-ply,SBD,M
Boys,55.79,DQ,Charles Dickerson,Huffman Hargrave,55.16,133.81,72.57,,,Single-ply,SBD,M
Boys,55.79,DQ,Tyler Smith #11,West Columbia,55.34,,,,,Single-ply,SBD,M
Boys,59.87,1,David Tsan,Orangefield,58.69,172.37,81.65,192.78,446.79,Single-ply,SBD,M
Boys,59.87,2,Hunter Stout,Bridge City,59.42,172.37,90.72,183.7,446.79,Single-ply,SBD,M
Boys,59.87,3,Cory Neptune,Needville,58.88,154.22,99.79,158.76,412.77,Single-ply,SBD,M
Boys,59.87,4,Josh Vasquez,Cleveland,59.69,154.22,74.84,174.63,403.7,Single-ply,SBD,M
Boys,59.87,5,Tony Hart,Silsbee,57.79,133.81,83.91,145.15,362.87,Single-ply,SBD,M
Boys,67.13,6,Thomas Chambers,Liberty,59.96,127.01,68.04,156.49,351.53,Single-ply,SBD,M
Boys,59.87,DQ,Sean Longmire,Bridge City,59.87,,,,,Single-ply,SBD,M
Boys,59.87,DQ,Deroddrick Hadnot,Jasper,58.15,183.7,,,,Single-ply,SBD,M
Boys,67.13,1,Matthew Nguyen,Palacios,67.04,188.24,102.06,206.38,496.68,Single-ply,SBD,M
Boys,67.13,2,Brad LaMach,West Columbia,66.5,192.78,92.99,206.38,492.15,Single-ply,SBD,M
Boys,67.13,3,Brice LaMach,West Columbia,66.41,190.51,111.13,185.97,487.61,Single-ply,SBD,M
Boys,67.13,4,Jose Jimenez #11,Palacios,65.41,170.1,111.13,181.44,462.66,Single-ply,SBD,M
Boys,74.84,5,David Muñoz,Shepherd,67.31,154.22,99.79,195.04,449.06,Single-ply,SBD,M
Boys,67.13,6,Kendrick Scott,Needville,65.41,149.69,102.06,185.97,437.72,Single-ply,SBD,M
Boys,67.13,7,Caleb Modzelewski,Sour Lake Hardin-Jefferson,65.14,151.95,104.33,176.9,433.18,Single-ply,SBD,M
Boys,67.13,8,Colby Trahan,Bridge City,65.32,183.7,79.38,163.29,426.38,Single-ply,SBD,M
Boys,67.13,9,Chase Hamshire,Silsbee,65.95,161.03,90.72,170.1,421.84,Single-ply,SBD,M
Boys,67.13,DQ,Chance Mays,Jasper,64.59,161.03,86.18,,,Single-ply,SBD,M
Boys,74.84,1,Britton Lindsey,West Orange-Stark,71.58,231.33,131.54,247.21,610.08,Single-ply,SBD,M
Boys,74.84,2,Austin Simmons,Hamshire-Fannett,71.94,199.58,199.58,199.58,598.74,Single-ply,SBD,M
Boys,74.84,3,David Saucedo,Shepherd,72.76,195.04,124.74,208.65,528.44,Single-ply,SBD,M
Boys,74.84,4,Dalton Horn,Sour Lake Hardin-Jefferson,74.84,197.31,120.2,201.85,519.36,Single-ply,SBD,M
Boys,74.84,5,Arthur Maxwell,Shepherd,71.58,208.65,92.99,192.78,494.42,Single-ply,SBD,M
Boys,74.84,6,Jackson Calhoun,Orangefield,68.4,172.37,99.79,185.97,458.13,Single-ply,SBD,M
Boys,74.84,7,Luis Guzman,Cleveland,72.3,172.37,102.06,183.7,458.13,Single-ply,SBD,M
Boys,74.84,8,Brendan Lopez,Palacios,68.49,158.76,97.52,190.51,446.79,Single-ply,SBD,M
Boys,74.84,9,Nick Stott,Jasper,74.66,158.76,104.33,174.63,437.72,Single-ply,SBD,M
Boys,74.84,DQ,Ontrevon Cooper,Coldspring-Oakhurst,71.85,,,,,Single-ply,SBD,M
Boys,74.84,DQ,Josh Whittleman,Shepherd,74.84,,,,,Single-ply,SBD,M
Boys,82.1,1,Rj Denson,Needville,75.84,208.65,124.74,235.87,569.26,Single-ply,SBD,M
Boys,82.1,2,Greg Sexton,Palacios,80.83,219.99,113.4,233.6,566.99,Single-ply,SBD,M
Boys,89.81,3,Tyrell Franks,Cleveland,82.33,226.8,140.61,199.58,566.99,Single-ply,SBD,M
Boys,82.1,4,Joe Lynch,West Orange-Stark,78.38,197.31,124.74,197.31,519.36,Single-ply,SBD,M
Boys,82.1,5,Ladarius Wilkes,West Orange-Stark,81.56,210.92,111.13,183.7,505.76,Single-ply,SBD,M
Boys,82.1,6,Garrett Floyd,Sour Lake Hardin-Jefferson,79.38,172.37,113.4,185.97,471.74,Single-ply,SBD,M
Boys,82.1,7,Quentin Jacko,Kirbyville,76.84,165.56,106.59,192.78,464.93,Single-ply,SBD,M
Boys,82.1,8,Dalen Guillory,Sour Lake Hardin-Jefferson,80.83,161.03,102.06,181.44,444.52,Single-ply,SBD,M
Boys,82.1,9,Damon Burton,Orangefield,79.47,154.22,108.86,161.03,424.11,Single-ply,SBD,M
Boys,82.1,DQ,Blake Whitton,Cleveland,80.47,183.7,106.59,,,Single-ply,SBD,M
Boys,89.81,1,Aaron Breed,Kirbyville,88.63,224.53,142.88,244.94,612.35,Single-ply,SBD,M
Boys,89.81,2,Nathan Brantner,Splendora,88.36,206.38,165.56,238.14,610.08,Single-ply,SBD,M
Boys,89.81,3,Juan Escamilla,Needville,86.09,215.46,154.22,231.33,601.01,Single-ply,SBD,M
Boys,89.81,4,Hunter Woolls,Bridge City,85.28,226.8,129.27,204.12,560.19,Single-ply,SBD,M
Boys,89.81,5,Lorence Richards,Hamshire-Fannett,85.73,204.12,102.06,235.87,542.04,Single-ply,SBD,M
Boys,89.81,6,Stephen Zwahr,Needville,87.27,195.04,122.47,215.46,532.97,Single-ply,SBD,M
Boys,89.81,7,Layne Walker,Sour Lake Hardin-Jefferson,88.45,192.78,106.59,201.85,501.22,Single-ply,SBD,M
Boys,89.81,DQ,Zach Cole #2,Bridge City,87.82,,,,,Single-ply,SBD,M
Boys,89.81,DQ,Dylan Sams,Bridge City,86.18,,,,,Single-ply,SBD,M
Boys,89.81,DQ,Dalton Duke,West Columbia,86,183.7,,,,Single-ply,SBD,M
Boys,99.79,1,Darren Stewart,Splendora,97.34,310.71,176.9,269.89,757.5,Single-ply,SBD,M
Boys,99.79,2,Shane Stankus,Bridge City,99.06,290.3,170.1,288.03,748.43,Single-ply,SBD,M
Boys,99.79,3,Jacob Courvelle,Shepherd,98.88,249.48,136.08,249.48,635.03,Single-ply,SBD,M
Boys,99.79,4,Lawrence Gilmore,West Orange-Stark,93.98,226.8,127.01,244.94,598.74,Single-ply,SBD,M
Boys,99.79,5,Joseph Stover,Coldspring-Oakhurst,97.43,226.8,136.08,226.8,589.67,Single-ply,SBD,M
Boys,99.79,6,Aaron Oats,Stafford,93.89,199.58,138.35,226.8,564.72,Single-ply,SBD,M
Boys,99.79,7,Aaron Deshazor,Kirbyville,99.52,195.04,131.54,226.8,553.38,Single-ply,SBD,M
Boys,99.79,8,Dillon Bryer,Jasper,98.79,208.65,124.74,210.92,544.31,Single-ply,SBD,M
Boys,99.79,9,David Hollyfield,Silsbee,98.97,183.7,136.08,197.31,517.1,Single-ply,SBD,M
Boys,99.79,DQ,Jonathan Swint,Coldspring-Oakhurst,98.97,,,,,Single-ply,SBD,M
Boys,109.77,1,Adam Aucoin,Palacios,104.33,290.3,158.76,233.6,682.66,Single-ply,SBD,M
Boys,109.77,2,Cj Duenas,Coldspring-Oakhurst,102.87,238.14,124.74,240.4,603.28,Single-ply,SBD,M
Boys,109.77,3,Michael Garcia,Palacios,104.51,226.8,142.88,233.6,603.28,Single-ply,SBD,M
Boys,109.77,4,Bret Treadway,Silsbee,106.14,213.19,142.88,204.12,560.19,Single-ply,SBD,M
Boys,109.77,DQ,Joaquin Trevino,Splendora,107.41,263.08,201.85,,,Single-ply,SBD,M
Boys,109.77,DQ,Will Tyler,Kirbyville,109.23,269.89,138.35,,,Single-ply,SBD,M
Boys,109.77,DQ,Randol Wiggins,Liberty,107.68,,,,,Single-ply,SBD,M
Boys,109.77,DQ,Chance Andries,Coldspring-Oakhurst,101.42,199.58,124.74,,,Single-ply,SBD,M
Boys,109.77,DQ,Joseph Traylor,Coldspring-Oakhurst,102.51,,,,,Single-ply,SBD,M
Boys,124.74,1,Travis Randall,Splendora,123.38,278.96,174.63,233.6,687.19,Single-ply,SBD,M
Boys,124.74,2,Nick Quintanar,Splendora,117.84,226.8,145.15,231.33,603.28,Single-ply,SBD,M
Boys,124.74,3,Ian Jenkins,West Orange-Stark,111.77,226.8,149.69,224.53,601.01,Single-ply,SBD,M
Boys,124.74,4,Doc Maricle,Silsbee,122.11,208.65,142.88,213.19,564.72,Single-ply,SBD,M
Boys,124.74,5,Alex Ramirez,Needville,114.4,217.72,151.95,192.78,562.45,Single-ply,SBD,M
Boys,124.74,DQ,Charlie Courvelle,Shepherd,120.56,290.3,,,,Single-ply,SBD,M
Boys,124.74,DQ,Kyle Roth,Kirbyville,118.02,,,,,Single-ply,SBD,M
Boys,124.74,DQ,Miguel Banda,Cleveland,122.2,,,,,Single-ply,SBD,M
Boys,124.74,DQ,Tyler Cromeens,Splendora,118.57,217.72,,,,Single-ply,SBD,M
Boys,124.74,DQ,Vincen Shorter,West Columbia,113.85,,,,,Single-ply,SBD,M
Boys,124.74+,1,Ryan Allen #1,West Orange-Stark,145.97,285.76,183.7,292.57,762.04,Single-ply,SBD,M
Boys,124.74+,2,Thomas Luce,Bridge City,125.92,308.44,172.37,244.94,725.75,Single-ply,SBD,M
Boys,124.74+,3,Josh Sell,Liberty,149.14,272.16,185.97,231.33,689.46,Single-ply,SBD,M
Boys,124.74+,4,Omar Tebo,Liberty,136.71,240.4,142.88,258.55,641.83,Single-ply,SBD,M
Boys,124.74+,5,Nolan Walker,Coldspring-Oakhurst,129.18,256.28,149.69,229.06,635.03,Single-ply,SBD,M
Boys,124.74+,6,Cullen Burch,Cleveland,125.19,244.94,195.04,190.51,630.49,Single-ply,SBD,M
Boys,124.74+,7,Jarvis Adams,Jasper,132.63,219.99,142.88,231.33,594.21,Single-ply,SBD,M
Boys,124.74+,8,Dalton Conrad,Coldspring-Oakhurst,137.26,217.72,136.08,229.06,582.87,Single-ply,SBD,M
Boys,124.74+,9,Jeremy Turk,Kirbyville,125.83,226.8,136.08,206.38,569.26,Single-ply,SBD,M
Boys,124.74+,10,Adley Lai,Stafford,125.19,210.92,102.06,210.92,523.9,Single-ply,SBD,M
