Division,WeightClassKg,Place,Name,Team,BodyweightKg,Best3SquatKg,Best3BenchKg,Best3DeadliftKg,TotalKg,Equipment,Event,Sex
Boys,51.71,1,Michael Ramsey,Ranger,51.62,161.03,86.18,176.9,424.11,Single-ply,SBD,M
Boys,51.71,2,Raymon Aranda,Seagraves,51.44,163.29,83.91,161.03,408.23,Single-ply,SBD,M
Boys,51.71,3,Viator Gomez,Mertzon Irion County,51.53,158.76,86.18,142.88,387.82,Single-ply,SBD,M
Boys,51.71,4,Matt Cordova,Amarillo Highland Park,51.07,127.01,95.25,147.42,369.68,Single-ply,SBD,M
Boys,51.71,5,Bryan Tran,Amarillo Highland Park,51.26,131.54,72.57,131.54,335.66,Single-ply,SBD,M
Boys,51.71,6,Favian Castellanos,Sunray,51.26,129.27,72.57,131.54,333.39,Single-ply,SBD,M
Boys,51.71,7,Vinny Meza,Bovina,50.89,120.2,72.57,133.81,326.59,Single-ply,SBD,M
Boys,51.71,8,Jarred Curtis,Post,50.26,129.27,72.57,117.93,319.78,Single-ply,SBD,M
Boys,51.71,9,Callum Hurst,Coahoma,50.35,120.2,68.04,120.2,308.44,Single-ply,SBD,M
Boys,55.79,DQ,Kyle Jaynes,Rising Star,51.94,,63.5,117.93,,Single-ply,SBD,M
Boys,55.79,DQ,Nick Gomez,McCamey,51.94,,,,,Single-ply,SBD,M
Boys,51.71,NS,Justin Rocha,Friona,,,,,,Single-ply,SBD,M
Boys,55.79,1,Keele Valenzuela,Kermit,55.07,179.17,106.59,170.1,455.86,Single-ply,SBD,M
Boys,55.79,2,Dang Nguyen,Amarillo Highland Park,54.79,154.22,88.45,174.63,417.3,Single-ply,SBD,M
Boys,55.79,3,Justin Tovar,Abernathy,55.52,161.03,104.33,151.95,417.3,Single-ply,SBD,M
Boys,59.87,4,Sean Gonzales,Ballinger,55.97,163.29,83.91,154.22,401.43,Single-ply,SBD,M
Boys,55.79,5,Zachary Salazar,Lamesa,55.07,142.88,88.45,154.22,385.55,Single-ply,SBD,M
Boys,55.79,6,Jonathan Michaels,Tuscola Jim Ned,53.98,145.15,92.99,145.15,383.29,Single-ply,SBD,M
Boys,55.79,7,Nick Espinoza,Denver City,55.61,147.42,92.99,142.88,383.29,Single-ply,SBD,M
Boys,55.79,8,Hector Bustillos,Sunray,54.79,147.42,77.11,154.22,378.75,Single-ply,SBD,M
Boys,55.79,9,Lucas Diaz,Santa Anna,55.16,147.42,74.84,156.49,378.75,Single-ply,SBD,M
Boys,55.79,10,Arturo Rodriguez,Meadow,54.98,147.42,74.84,145.15,367.41,Single-ply,SBD,M
Boys,55.79,DQ,Juan Macias,Friona,55.79,149.69,77.11,136.08,,Single-ply,SBD,M
Boys,55.79,DQ,Fernando Corpus,Amarillo Highland Park,55.52,136.08,74.84,154.22,,Single-ply,SBD,M
Boys,59.87,1,Cambry Gilbert,Post,58.88,181.44,92.99,195.04,469.47,Single-ply,SBD,M
Boys,59.87,2,Adam Martin,Sudan,58.88,181.44,92.99,188.24,462.66,Single-ply,SBD,M
Boys,59.87,3,JD Rojas,Lubbock Roosevelt,58.69,149.69,104.33,176.9,430.91,Single-ply,SBD,M
Boys,67.13,4,Javier Garcia #9,Eldorado,59.96,170.1,92.99,154.22,417.3,Single-ply,SBD,M
Boys,59.87,5,Esdras Rodriguez,Friona,58.97,161.03,86.18,167.83,415.04,Single-ply,SBD,M
Boys,59.87,6,Trenton Crenshaw,Coahoma,59.51,154.22,90.72,158.76,403.7,Single-ply,SBD,M
Boys,59.87,7,Dillon Hughes,Sterling City,57.79,149.69,92.99,158.76,401.43,Single-ply,SBD,M
Boys,59.87,8,Servando Cavazos,Abernathy,58.69,158.76,81.65,158.76,399.16,Single-ply,SBD,M
Boys,59.87,9,Oscar Salgado,Alpine,56.7,133.81,97.52,161.03,392.36,Single-ply,SBD,M
Boys,59.87,10,Christian Alexander,Tuscola Jim Ned,58.42,154.22,86.18,142.88,383.29,Single-ply,SBD,M
Boys,67.13,DQ,Andrew Martinez,Coahoma,59.96,145.15,88.45,158.76,,Single-ply,SBD,M
Boys,59.87,NS,Adan Ramirez,Friona,,,,,,Single-ply,SBD,M
Boys,67.13,1,Jordan Ruiz,Seagraves,66.5,260.82,154.22,254.01,669.05,Single-ply,SBD,M
Boys,67.13,2,Michael Vargas,Ozona,66.13,258.55,120.2,226.8,605.55,Single-ply,SBD,M
Boys,67.13,3,Eli Rodriguez,Seagraves,66.5,226.8,95.25,204.12,526.17,Single-ply,SBD,M
Boys,67.13,4,John Jurado,Ozona,65.5,199.58,95.25,206.38,501.22,Single-ply,SBD,M
Boys,67.13,5,DJ Brown,Post,65.41,181.44,120.2,195.04,496.68,Single-ply,SBD,M
Boys,67.13,6,Clayten Crabb,Ballinger,66.59,188.24,113.4,185.97,487.61,Single-ply,SBD,M
Boys,67.13,7,Reece Harper,Sudan,64.41,158.76,99.79,210.92,469.47,Single-ply,SBD,M
Boys,67.13,8,Oscar Narvaez,Mertzon Irion County,64.68,181.44,97.52,176.9,455.86,Single-ply,SBD,M
Boys,67.13,DQ,Ismael Ramirez,Garden City,65.86,156.49,102.06,165.56,,Single-ply,SBD,M
Boys,67.13,DQ,Matt Anderson,Coleman,60.51,,,,,Single-ply,SBD,M
Boys,67.13,DQ,Adrian Gonzalez,Floydada,65.32,174.63,,,,Single-ply,SBD,M
Boys,67.13,DQ,Austin Ramirez,Iraan,66.41,,,,,Single-ply,SBD,M
Boys,74.84,1,Kneeland Donnelly,Hawley,72.21,251.74,142.88,226.8,621.42,Single-ply,SBD,M
Boys,74.84,2,Aaron Castillo,Rankin,74.57,217.72,149.69,238.14,605.55,Single-ply,SBD,M
Boys,74.84,3,Sean Schaefer,Ballinger,71.67,226.8,111.13,213.19,551.11,Single-ply,SBD,M
Boys,74.84,4,Dante Gomez,Clyde,72.85,226.8,124.74,199.58,551.11,Single-ply,SBD,M
Boys,74.84,5,Willie Collins,Ballinger,73.84,217.72,136.08,197.31,551.11,Single-ply,SBD,M
Boys,74.84,6,Marcus Ruff,Whiteface,74.3,204.12,120.2,222.26,546.58,Single-ply,SBD,M
Boys,74.84,7,Jd Lopez,Childress,71.85,195.04,129.27,190.51,514.83,Single-ply,SBD,M
Boys,74.84,8,Landon Leschper,Anson,74.66,185.97,124.74,204.12,514.83,Single-ply,SBD,M
Boys,74.84,9,Jon Chavez,Sundown,71.76,195.04,92.99,219.99,508.02,Single-ply,SBD,M
Boys,74.84,DQ,Cole Hunt,Alpine,73.48,,,,,Single-ply,SBD,M
Boys,74.84,DQ,Luke Parker,Christoval,72.94,204.12,102.06,,,Single-ply,SBD,M
Boys,74.84,DQ,Barry Johnson,Sudan,71.49,,,,,Single-ply,SBD,M
Boys,82.1,1,Joe Melendez,Coahoma,81.83,244.94,124.74,233.6,603.28,Single-ply,SBD,M
Boys,82.1,2,Cristopher Stallings,Kermit,81.19,215.46,154.22,226.8,596.47,Single-ply,SBD,M
Boys,82.1,3,Rikkie Ruschenberg,San Angelo Grape Creek,78.02,258.55,122.47,213.19,594.21,Single-ply,SBD,M
Boys,82.1,4,Aric Ramzanali,Hawley,81.56,206.38,183.7,199.58,589.67,Single-ply,SBD,M
Boys,82.1,5,Michael Garcia,Friona,78.2,222.26,138.35,197.31,557.92,Single-ply,SBD,M
Boys,82.1,6,Steven Kirk,Ballinger,80.74,217.72,127.01,199.58,544.31,Single-ply,SBD,M
Boys,89.81,7,Sito Torres,Meadow,82.33,219.99,127.01,192.78,539.77,Single-ply,SBD,M
Boys,82.1,8,Alexander Guerrero,Childress,78.93,195.04,115.67,219.99,530.7,Single-ply,SBD,M
Boys,82.1,9,Alexis Mendoza,Sunray,82.1,210.92,111.13,199.58,521.63,Single-ply,SBD,M
Boys,82.1,DQ,Federico Carmona,Floydada,81.74,,,,,Single-ply,SBD,M
Boys,82.1,NS,Juan Burns,Hawley,,,,,,Single-ply,SBD,M
Boys,89.81,1,Aaron Chavarria,Floydada,87.63,278.96,172.37,242.67,694,Single-ply,SBD,M
Boys,89.81,2,John Cuellar,Ballinger,89.81,249.48,158.76,240.4,648.64,Single-ply,SBD,M
Boys,99.79,3,Angel Aguilera,Big Lake Reagan County,90.04,265.35,138.35,231.33,635.03,Single-ply,SBD,M
Boys,89.81,4,Xavier Garza,Sundown,86.18,222.26,127.01,235.87,585.13,Single-ply,SBD,M
Boys,89.81,5,Josh Neri,Mertzon Irion County,83.91,201.85,136.08,219.99,557.92,Single-ply,SBD,M
Boys,99.79,6,Daniel King,Ballinger,90.04,206.38,124.74,226.8,557.92,Single-ply,SBD,M
Boys,89.81,7,Nick Anna,Plains,85.73,201.85,113.4,233.6,548.85,Single-ply,SBD,M
Boys,89.81,8,Daniel Cooper,Kermit,88.45,222.26,122.47,204.12,548.85,Single-ply,SBD,M
Boys,89.81,9,Pecos Silva,Christoval,88.9,204.12,124.74,204.12,532.97,Single-ply,SBD,M
Boys,89.81,DQ,Fabian Gomez,Eldorado,84.37,215.46,122.47,185.97,,Single-ply,SBD,M
Boys,89.81,NS,Levi Irby,Hawley,,,,,,Single-ply,SBD,M
Boys,89.81,DQ,Osbaldo Vega,Crane,88.27,185.97,,,,Single-ply,SBD,M
Boys,99.79,1,Auggie Woodruff,Ballinger,99.79,317.51,204.12,254.01,775.64,Single-ply,SBD,M
Boys,99.79,2,Roland Zamora,Meadow,92.99,272.16,151.95,233.6,657.71,Single-ply,SBD,M
Boys,99.79,3,Matt Garcia,Mertzon Irion County,97.07,233.6,158.76,215.46,607.81,Single-ply,SBD,M
Boys,99.79,4,Zak Walton,Coahoma,98.43,244.94,154.22,208.65,607.81,Single-ply,SBD,M
Boys,99.79,5,Lane Pickett,Hawley,95.53,249.48,129.27,226.8,605.55,Single-ply,SBD,M
Boys,99.79,6,Alex Perez,San Angelo Grape Creek,96.71,247.21,131.54,213.19,591.94,Single-ply,SBD,M
Boys,99.79,7,Alex Ayala,Lamesa,97.61,226.8,147.42,215.46,589.67,Single-ply,SBD,M
Boys,109.77,8,Cody Stephens,Crane,99.88,217.72,149.69,213.19,580.6,Single-ply,SBD,M
Boys,99.79,9,Shawn Walker,Garden City,92.99,215.46,149.69,210.92,576.06,Single-ply,SBD,M
Boys,99.79,10,Michael Woods,Merkel,97.34,204.12,136.08,204.12,544.31,Single-ply,SBD,M
Boys,99.79,DQ,Joe Haddad,Clyde,97.16,204.12,,,,Single-ply,SBD,M
Boys,109.77,1,Josue Damian,Ozona,108.86,288.03,147.42,265.35,700.8,Single-ply,SBD,M
Boys,109.77,2,Jordon Stokes,Clyde,104.24,249.48,170.1,251.74,671.32,Single-ply,SBD,M
Boys,109.77,3,Haddan Stokes,Clyde,106.59,242.67,170.1,215.46,628.23,Single-ply,SBD,M
Boys,109.77,4,Adrian Hernandez #2,San Angelo Grape Creek,104.33,242.67,138.35,226.8,607.81,Single-ply,SBD,M
Boys,109.77,5,Wade Pierce,Iraan,100.88,219.99,140.61,235.87,596.47,Single-ply,SBD,M
Boys,109.77,6,Gavin Flores,Dimmitt,105.14,226.8,145.15,219.99,591.94,Single-ply,SBD,M
Boys,109.77,7,Scott Martin,Dimmitt,105.51,208.65,113.4,226.8,548.85,Single-ply,SBD,M
Boys,109.77,DQ,Hl James,Christoval,109.77,240.4,108.86,235.87,,Single-ply,SBD,M
Boys,109.77,DQ,Angel DeLuna,Sonora,106.05,235.87,120.2,217.72,,Single-ply,SBD,M
Boys,109.77,DQ,Rolando Gutierrez,Seagraves,103.78,256.28,,,,Single-ply,SBD,M
Boys,109.77,DQ,Rudy Brito,Coahoma,107.86,,,,,Single-ply,SBD,M
Boys,109.77,DQ,Abayomi Salinas,Friona,108.86,,,,,Single-ply,SBD,M
Boys,109.77,DQ,Justin Chavez,Sundown,108.77,249.48,140.61,,,Single-ply,SBD,M
Boys,124.74,1,Celso Guerrero,Childress,123.83,265.35,190.51,238.14,694,Single-ply,SBD,M
Boys,124.74,2,Jeremiah DeLeon,Tahoka,116.85,272.16,181.44,215.46,669.05,Single-ply,SBD,M
Boys,124.74,3,Oscar Valdez,Clyde,113.49,265.35,145.15,254.01,664.51,Single-ply,SBD,M
Boys,124.74,4,Antonio Perez,San Angelo Grape Creek,118.75,229.06,188.24,217.72,635.03,Single-ply,SBD,M
Boys,124.74,5,Jacob Daniels,Ballinger,116.03,260.82,158.76,213.19,632.76,Single-ply,SBD,M
Boys,124.74,6,Elijah Elizondo,Ranger,119.29,226.8,161.03,238.14,625.96,Single-ply,SBD,M
Boys,124.74,7,Chris Thomas,Slaton,119.29,249.48,145.15,226.8,621.42,Single-ply,SBD,M
Boys,124.74,8,Mark Munoz,Childress,120.02,219.99,145.15,240.4,605.55,Single-ply,SBD,M
Boys,124.74,9,David Rodriguez,Muleshoe,110.86,231.33,140.61,204.12,576.06,Single-ply,SBD,M
Boys,124.74,DQ,Jet Grant,Sundown,111.67,226.8,129.27,185.97,,Single-ply,SBD,M
Boys,124.74,DQ,Phillip Bacon,Coahoma,123.47,226.8,129.27,204.12,,Single-ply,SBD,M
Boys,124.74,DQ,Ausden Medrano,Forsan,115.21,240.4,131.54,,,Single-ply,SBD,M
Boys,124.74+,1,Edgar Guerrero,Friona,131.09,317.51,195.04,306.17,818.73,Single-ply,SBD,M
Boys,124.74+,2,Kyle Weiss #1,Panhandle,141.34,249.48,204.12,226.8,680.39,Single-ply,SBD,M
Boys,124.74+,3,Kelton Bales,Iraan,125.37,274.42,136.08,240.4,650.91,Single-ply,SBD,M
Boys,124.74+,4,Conner Willis,Tuscola Jim Ned,135.99,249.48,158.76,231.33,639.57,Single-ply,SBD,M
Boys,124.74+,5,Joseph Villarreal,Lubbock Roosevelt,138.16,249.48,136.08,235.87,621.42,Single-ply,SBD,M
Boys,124.74+,6,Ryan Burns,Hawley,145.6,254.01,136.08,226.8,616.89,Single-ply,SBD,M
Boys,124.74+,7,Ernie Veloz,Big Lake Reagan County,132.81,272.16,136.08,204.12,612.35,Single-ply,SBD,M
Boys,124.74+,8,Santos Jackson,Dimmitt,143.88,267.62,124.74,217.72,610.08,Single-ply,SBD,M
Boys,124.74+,9,Jonathan Aguilar,Lubbock Roosevelt,128.37,233.6,136.08,226.8,596.47,Single-ply,SBD,M
Boys,124.74+,10,David Mejia,Coahoma,144.7,226.8,129.27,226.8,582.87,Single-ply,SBD,M
Boys,124.74+,DQ,Rudy Jackson,Dimmitt,129.73,244.94,129.27,192.78,,Single-ply,SBD,M
Boys,124.74+,DQ,Colby Roach,Panhandle,135.35,215.46,127.01,217.72,,Single-ply,SBD,M
