Division,WeightClassKg,Place,Name,Team,BodyweightKg,Best3SquatKg,Best3BenchKg,Best3DeadliftKg,TotalKg,Equipment,Event,Sex,BirthDate
Boys,55.79,1,Gianluca Figueroa,Carrollton Smith,55.79,154.22,104.33,195.04,453.59,Single-ply,SBD,M,
Boys,59.87,1,Aidan Gray,Carrollton Creekview,59.51,111.13,68.04,115.67,294.84,Single-ply,SBD,M,
Boys,67.13,1,Ashton Nguyen,Carrollton Creekview,63.32,138.35,70.31,140.61,349.27,Single-ply,SBD,M,
Boys,67.13,2,Calvin Nguyen,Carrollton Creekview,66.04,133.81,70.31,138.35,342.46,Single-ply,SBD,M,
Boys,74.84,1,Alejandro Diaz,Carrollton Smith,74.84,174.63,92.99,176.9,444.52,Single-ply,SBD,M,
Boys,74.84,2,Josiah Robison,Carrollton Creekview,74.48,158.76,104.33,158.76,421.84,Single-ply,SBD,M,
Boys,74.84,3,Beck Limon,Carrollton Creekview,73.21,124.74,61.23,151.95,337.93,Single-ply,SBD,M,
Boys,74.84,4,Bobby Shewandagne,Carrollton Creekview,69.13,111.13,54.43,142.88,308.44,Single-ply,SBD,M,
Boys,82.1,1,Cole Mclain,Carrollton Creekview,81.83,106.59,106.59,122.47,335.66,Single-ply,SBD,M,
Boys,89.81,1,Jack Nelson,Carrollton Creekview,88.81,142.88,92.99,142.88,378.75,Single-ply,SBD,M,
Boys,89.81,2,Robert Dixon,Carrollton Smith,88.54,113.4,106.59,154.22,374.21,Single-ply,SBD,M,
Boys,89.81,3,Demarcus Cannon,Carrollton Creekview,88,142.88,72.57,142.88,358.34,Single-ply,SBD,M,
Boys,99.79,1,Nick Webber,Carrollton Smith,95.71,181.44,138.35,174.63,494.42,Single-ply,SBD,M,
Boys,99.79,2,Keolan Harongsemal,Carrollton Creekview,96.62,181.44,115.67,188.24,485.34,Single-ply,SBD,M,
Boys,99.79,3,Josue Benavides,Carrollton Creekview,96.16,176.9,92.99,183.7,453.59,Single-ply,SBD,M,
Boys,109.77,1,Gage Porche,Carrollton Creekview,107.05,122.47,72.57,149.69,344.73,Single-ply,SBD,M,
Boys,109.77,2,Kevin Cabrera,Carrollton Creekview,104.14,102.06,90.72,111.13,303.91,Single-ply,SBD,M,
Boys,124.74,1,Noah Sanchez,Carrollton Creekview,115.12,149.69,111.13,181.44,442.25,Single-ply,SBD,M,
Boys,124.74,2,Travis Chinamhora,Carrollton Creekview,117.39,142.88,90.72,140.61,374.21,Single-ply,SBD,M,
Boys,124.74,3,Javorus Mack,Carrollton Smith,110.68,111.13,70.31,117.93,299.37,Single-ply,SBD,M,
Boys,139.71,1,Brandon Holloway,Carrollton Smith,133.36,142.88,102.06,170.1,415.04,Single-ply,SBD,M,
Boys,139.71,2,Joshua McMurray,Carrollton Creekview,128.91,145.15,102.06,147.42,394.63,Single-ply,SBD,M,
