Division,WeightClassKg,Place,Name,Team,BodyweightKg,Best3SquatKg,Best3BenchKg,Best3DeadliftKg,TotalKg,Equipment,Event,Sex
Boys,55.79,1,Benny Lara,Victoria West,51.89,156.49,70.31,158.76,385.55,Single-ply,SBD,M
Boys,51.71,2,David Garcia,Jourdanton,51.71,92.99,65.77,113.4,272.16,Single-ply,SBD,M
Boys,51.71,3,Gage Cross,Hondo,41.1,45.36,31.75,77.11,154.22,Single-ply,SBD,M
Boys,55.79,1,Jermaine Mendiola,Somerset,54.88,195.04,108.86,181.44,485.34,Single-ply,SBD,M
Boys,55.79,2,Rudy Rios,Devine,55.79,129.27,74.84,154.22,358.34,Single-ply,SBD,M
Boys,55.79,3,Dominic Mercado,San Antonio Cole,55.25,127.01,63.5,136.08,326.59,Single-ply,SBD,M
Boys,55.79,4,Justin Jones,Universal City Randolph,54.61,102.06,72.57,120.2,294.84,Single-ply,SBD,M
Boys,59.87,5,Nathan Martinez,San Antonio Holy Cross,55.97,108.86,56.7,127.01,292.57,Single-ply,SBD,M
Boys,55.79,DQ,Luke Torres,Devine,54.7,,,,,Single-ply,SBD,M
Boys,55.79,DQ,Jaime Rodriguez,Jourdanton,54.79,,,,,Single-ply,SBD,M
Boys,59.87,1,Elijah Gonzales,San Antonio East Central,58.42,170.1,108.86,195.04,474,Single-ply,SBD,M
Boys,67.13,2,Christopher Alfaro,San Antonio East Central,60.06,170.1,95.25,195.04,460.4,Single-ply,SBD,M
Boys,67.13,3,Anthony Perez,San Antonio Cole,60.06,174.63,102.06,181.44,458.13,Single-ply,SBD,M
Boys,59.87,4,Manuel Charo,San Antonio East Central,59.87,167.83,99.79,185.97,453.59,Single-ply,SBD,M
Boys,59.87,5,Juan Rojas,La Pryor,58.06,172.37,106.59,158.76,437.72,Single-ply,SBD,M
Boys,67.13,6,Tom Palacio,Nixon Smiley,60.06,158.76,99.79,165.56,424.11,Single-ply,SBD,M
Boys,59.87,7,Wesley Lover,Karnes City,58.88,138.35,97.52,165.56,401.43,Single-ply,SBD,M
Boys,59.87,8,Ben Uribe,Jourdanton,58.69,154.22,86.18,145.15,385.55,Single-ply,SBD,M
Boys,59.87,9,Garrison Kindred,Castroville Medina Valley,59.33,149.69,86.18,147.42,383.29,Single-ply,SBD,M
Boys,59.87,10,Jesse Gonzalez,San Antonio Holy Cross,58.24,133.81,61.23,161.03,356.07,Single-ply,SBD,M
Boys,59.87,11,Marco Gomez,Crystal City,59.87,95.25,68.04,106.59,269.89,Single-ply,SBD,M
Boys,59.87,12,Cameron Vera,Somerset,59.69,83.91,61.23,102.06,247.21,Single-ply,SBD,M
Boys,59.87,DQ,Domingo Zapata,Somerset,58.79,,,,,Single-ply,SBD,M
Boys,74.84,1,David Guzman,San Antonio Southside,67.31,206.38,120.2,206.38,532.97,Single-ply,SBD,M
Boys,67.13,2,Josue Tobias,Laredo Nixon,65.14,190.51,108.86,226.8,526.17,Single-ply,SBD,M
Boys,67.13,3,Gil Garcia,Crystal City,66.13,167.83,90.72,204.12,462.66,Single-ply,SBD,M
Boys,67.13,4,Aaron Realme,Pearsall,64.14,185.97,88.45,183.7,458.13,Single-ply,SBD,M
Boys,67.13,5,Victor Monsevias,Kenedy,60.33,176.9,86.18,174.63,437.72,Single-ply,SBD,M
Boys,67.13,6,Ismael Franco,Crystal City,64.5,124.74,88.45,138.35,351.53,Single-ply,SBD,M
Boys,67.13,7,Alberto Salazar,Somerset,61.87,92.99,61.23,145.15,299.37,Single-ply,SBD,M
Boys,67.13,DQ,Jaxsel Cabrera-Torres,San Antonio Cole,65.5,176.9,,,,Single-ply,SBD,M
Boys,67.13,DQ,Joe Guerrero,Devine,65.86,199.58,122.47,,,Single-ply,SBD,M
Boys,67.13,DQ,Paul Santana,Devine,66.13,174.63,,,,Single-ply,SBD,M
Boys,67.13,DQ,Darren Graham,San Antonio Holy Cross,61.69,,,,,Single-ply,SBD,M
Boys,67.13,DQ,Beau Burns,Victoria West,66.68,,,,,Single-ply,SBD,M
Boys,74.84,1,Chayce Grevey,Victoria West,74.57,215.46,127.01,226.8,569.26,Single-ply,SBD,M
Boys,74.84,2,Hunter Dollery,Victoria West,73.66,213.19,120.2,219.99,553.38,Single-ply,SBD,M
Boys,74.84,3,Mark Saldana,San Antonio East Central,73.03,195.04,131.54,222.26,548.85,Single-ply,SBD,M
Boys,74.84,4,Matt Fanno,Jourdanton,70.31,201.85,108.86,210.92,521.63,Single-ply,SBD,M
Boys,74.84,5,Jeremy Herrera,San Antonio Holy Cross,73.57,183.7,124.74,208.65,517.1,Single-ply,SBD,M
Boys,74.84,6,Logan Muehlstein,Goliad,72.85,185.97,106.59,222.26,514.83,Single-ply,SBD,M
Boys,74.84,7,Alex Pena,Somerset,74.21,204.12,129.27,167.83,501.22,Single-ply,SBD,M
Boys,74.84,8,Fabian Reyna,Jourdanton,71.3,199.58,124.74,167.83,492.15,Single-ply,SBD,M
Boys,74.84,9,Rene Rodriguez,Pearsall,68.22,181.44,106.59,201.85,489.88,Single-ply,SBD,M
Boys,74.84,10,Robert Adame,San Antonio Holy Cross,70.03,183.7,102.06,192.78,478.54,Single-ply,SBD,M
Boys,74.84,11,Jacob Aguilar,San Antonio Holy Cross,72.21,197.31,111.13,165.56,474,Single-ply,SBD,M
Boys,74.84,12,Anthony Estrada,Somerset,72.21,183.7,102.06,172.37,458.13,Single-ply,SBD,M
Boys,74.84,13,Sergio Villarreal,Castroville Medina Valley,74.48,163.29,102.06,188.24,453.59,Single-ply,SBD,M
Boys,74.84,14,Matthew Garcia,San Antonio Holy Cross,70.03,170.1,83.91,188.24,442.25,Single-ply,SBD,M
Boys,74.84,15,Eddie Lopez,Universal City Randolph,70.94,149.69,81.65,181.44,412.77,Single-ply,SBD,M
Boys,74.84,16,Alex Gill,Universal City Randolph,70.13,158.76,83.91,149.69,392.36,Single-ply,SBD,M
Boys,74.84,17,Francisco Arenas,Crystal City,68.4,111.13,65.77,147.42,324.32,Single-ply,SBD,M
Boys,82.1,1,Aaron Porras,San Antonio Southside,81.92,242.67,149.69,226.8,619.15,Single-ply,SBD,M
Boys,82.1,2,Christian Hosley,Universal City Randolph,78.38,235.87,147.42,233.6,616.89,Single-ply,SBD,M
Boys,82.1,3,Ashton Williams,San Antonio East Central,81.1,235.87,136.08,222.26,594.21,Single-ply,SBD,M
Boys,82.1,4,Travis Dibble,Victoria West,81.47,215.46,131.54,226.8,573.79,Single-ply,SBD,M
Boys,82.1,5,Robert Llanas,San Antonio East Central,80.01,226.8,122.47,222.26,571.53,Single-ply,SBD,M
Boys,82.1,6,Mark Sustaita,Castroville Medina Valley,81.83,195.04,122.47,206.38,523.9,Single-ply,SBD,M
Boys,82.1,7,Zach Vyvlecka,Jourdanton,76.57,215.46,102.06,199.58,517.1,Single-ply,SBD,M
Boys,82.1,8,Mitchell Rees,Karnes City,80.1,204.12,108.86,201.85,514.83,Single-ply,SBD,M
Boys,82.1,9,Adrian Sustaita,Castroville Medina Valley,78.29,183.7,104.33,185.97,474,Single-ply,SBD,M
Boys,82.1,10,Connor McLaughlin,Stockdale,80.92,176.9,120.2,176.9,474,Single-ply,SBD,M
Boys,82.1,11,Nathan Salazar,Somerset,81.47,147.42,97.52,195.04,439.98,Single-ply,SBD,M
Boys,82.1,12,Elijah Rollins,Somerset,76.29,129.27,79.38,172.37,381.02,Single-ply,SBD,M
Boys,82.1,13,Brock Gonzales,Universal City Randolph,75.75,136.08,79.38,154.22,369.68,Single-ply,SBD,M
Boys,82.1,14,Bryce Taylor,Somerset,82.1,122.47,83.91,149.69,356.07,Single-ply,SBD,M
Boys,82.1,DQ,Rene Romero,Crystal City,79.56,,,,,Single-ply,SBD,M
Boys,89.81,1,AJ Camacho,Hondo,85.37,238.14,124.74,192.78,555.65,Single-ply,SBD,M
Boys,89.81,2,Andres Moncada,Karnes City,84.91,213.19,117.93,208.65,539.77,Single-ply,SBD,M
Boys,89.81,3,Tony Rivas,Brackettville Brackett,89.18,206.38,106.59,197.31,510.29,Single-ply,SBD,M
Boys,89.81,4,Emanual Moreno,Somerset,88.27,192.78,124.74,172.37,489.88,Single-ply,SBD,M
Boys,99.79,5,Bo Perez,San Antonio Holy Cross,89.99,185.97,102.06,176.9,464.93,Single-ply,SBD,M
Boys,89.81,6,Rafael Salinas,Somerset,86.64,158.76,83.91,151.95,394.63,Single-ply,SBD,M
Boys,89.81,7,Jonathon Alvarado,Crystal City,86,142.88,106.59,127.01,376.48,Single-ply,SBD,M
Boys,89.81,8,Ariel Perez,Crystal City,86.73,122.47,83.91,145.15,351.53,Single-ply,SBD,M
Boys,89.81,9,Steven Musquiz,Crystal City,87,113.4,70.31,147.42,331.12,Single-ply,SBD,M
Boys,89.81,DQ,Dylan Esquivel,Victoria West,87.91,,,,,Single-ply,SBD,M
Boys,99.79,1,Bryan London,Universal City Randolph,95.71,249.48,151.95,260.82,662.24,Single-ply,SBD,M
Boys,99.79,2,Michael de la Garza,Victoria West,96.43,251.74,142.88,247.21,641.83,Single-ply,SBD,M
Boys,99.79,3,Dustin De La Vega,Somerset,99.06,249.48,156.49,219.99,625.96,Single-ply,SBD,M
Boys,99.79,4,Shawn Martinez,Victoria West,98.88,272.16,142.88,208.65,623.69,Single-ply,SBD,M
Boys,99.79,5,Jose Orellana,La Pryor,96.34,229.06,149.69,222.26,601.01,Single-ply,SBD,M
Boys,99.79,6,Eli Rejinoi,Devine,95.07,222.26,149.69,199.58,571.53,Single-ply,SBD,M
Boys,99.79,7,Raymond Casarez,San Antonio Holy Cross,95.98,224.53,106.59,219.99,551.11,Single-ply,SBD,M
Boys,99.79,8,Lain Hermes,Goliad,98.88,201.85,124.74,213.19,539.77,Single-ply,SBD,M
Boys,99.79,9,Emilio Alvarado,Crystal City,99.7,174.63,136.08,181.44,492.15,Single-ply,SBD,M
Boys,99.79,10,Robert Guzman,Somerset,92.53,161.03,102.06,149.69,412.77,Single-ply,SBD,M
Boys,99.79,11,Dylan Lutz,Hondo,97.52,158.76,83.91,149.69,392.36,Single-ply,SBD,M
Boys,99.79,DQ,Manuel Garcia,Crystal City,91.9,113.4,52.16,,,Single-ply,SBD,M
Boys,99.79,DQ,Eddie Moreno,Somerset,99.79,201.85,,,,Single-ply,SBD,M
Boys,99.79,DQ,George Perez,Somerset,93.71,142.88,83.91,,,Single-ply,SBD,M
Boys,109.77,1,Cody Kuhl,Universal City Randolph,105.6,208.65,117.93,244.94,571.53,Single-ply,SBD,M
Boys,109.77,2,Austen Flores #1,San Antonio Holy Cross,109.5,208.65,97.52,242.67,548.85,Single-ply,SBD,M
Boys,109.77,3,Joshua Leal,Karnes City,109.59,208.65,122.47,213.19,544.31,Single-ply,SBD,M
Boys,109.77,4,Fabian Vargas,Goliad,106.59,192.78,136.08,167.83,496.68,Single-ply,SBD,M
Boys,109.77,DQ,Ray Mendoza,Crystal City,100.97,208.65,,,,Single-ply,SBD,M
Boys,109.77,DQ,Ray Palomeque,Pearsall,107.32,217.72,138.35,,,Single-ply,SBD,M
Boys,109.77,DQ,Jacob Caldera,San Antonio Cole,104.96,,,,,Single-ply,SBD,M
Boys,109.77,DQ,Jacob Ybarra,Somerset,108.32,,,,,Single-ply,SBD,M
Boys,124.74,1,James Woods,Somerset,114.12,265.35,136.08,238.14,639.57,Single-ply,SBD,M
Boys,124.74+,2,Mark Garcia,Brackettville Brackett,124.83,258.55,158.76,215.46,632.76,Single-ply,SBD,M
Boys,124.74,3,Austin Soto,Devine,118.21,235.87,185.97,204.12,625.96,Single-ply,SBD,M
Boys,124.74,4,Rolando DeLuna,Castroville Medina Valley,123.2,249.48,117.93,190.51,557.92,Single-ply,SBD,M
Boys,124.74,5,Hector Garza,Jourdanton,118.12,222.26,113.4,183.7,519.36,Single-ply,SBD,M
Boys,124.74,6,Isaiah Atseriak,San Antonio Cole,122.38,176.9,77.11,176.9,430.91,Single-ply,SBD,M
Boys,124.74,DQ,Jojo Mata,La Pryor,122.65,244.94,,,,Single-ply,SBD,M
Boys,124.74+,1,Joseph Peña #1,San Antonio Holy Cross,148.14,319.78,188.24,260.82,768.84,Single-ply,SBD,M
Boys,124.74+,2,James Cooksey,Kenedy,139.98,299.37,163.29,249.48,712.14,Single-ply,SBD,M
Boys,124.74+,3,Martin Hidrogo,Stockdale,132.9,249.48,147.42,226.8,623.69,Single-ply,SBD,M
Boys,124.74+,4,Cesar Romero,Universal City Randolph,133.72,226.8,124.74,254.01,605.55,Single-ply,SBD,M
Boys,124.74+,5,Roland Barcena,San Antonio Holy Cross,141.43,251.74,147.42,181.44,580.6,Single-ply,SBD,M
Boys,124.74+,6,Michael Garza #1,Crystal City,125.01,249.48,136.08,183.7,569.26,Single-ply,SBD,M
Boys,124.74+,7,Javier De Leon,Somerset,135.62,272.16,124.74,136.08,532.97,Single-ply,SBD,M
Boys,124.74+,DQ,Jonah Masters,San Antonio Cole,127.82,215.46,,,,Single-ply,SBD,M
