Name,WeightClassKg,Division,AgeRange,Sex,Best3SquatKg,Best3BenchKg,Best3DeadliftKg,TotalKg,Event,Equipment,Place
Tony Bumgardner,52,Open,,M,137.5,97.5,160,395,SBD,Single-ply,1
Todd Rhoads,56,Open,,M,145,70,185,400,SBD,Single-ply,1
Todd Tucker,56,Open,,M,125,80,147.5,352.5,SBD,Single-ply,2
Annais Covington,60,Open,,M,195,155,227.5,577.5,SBD,Single-ply,1
Mark Wainscot,60,Open,,M,115,80,142.5,337.5,SBD,Single-ply,2
Don Kiefer,67.5,Open,,M,205,135,210,550,SBD,Single-ply,1
Benny Sims,67.5,Open,,M,200,102.5,230,532.5,SBD,Single-ply,2
Dale Wilson,67.5,Open,,M,182.5,122.5,212.5,517.5,SBD,Single-ply,3
Mark Moore,67.5,Open,,M,185,130,195,510,SBD,Single-ply,4
Terry West,67.5,Open,,M,170,110,205,485,SBD,Single-ply,5
John Franklin,67.5,Open,,M,165,107.5,202.5,475,SBD,Single-ply,6
Randy Smith,75,Open,,M,217.5,157.5,235,610,SBD,Single-ply,1
Abe Roman,75,Open,,M,217.5,157.5,235,610,SBD,Single-ply,2
Ed Mosley,75,Open,,M,227.5,147.5,227.5,602.5,SBD,Single-ply,3
Ethell Bell,75,Open,,M,235,112.5,242.5,590,SBD,Single-ply,4
Greg Willard,75,Open,,M,222.5,137.5,230,590,SBD,Single-ply,5
Greg Crenshaw,75,Open,,M,200,130,247.5,577.5,SBD,Single-ply,6
Scott Whiting,75,Open,,M,210,120,227.5,557.5,SBD,Single-ply,7
Rusty Pace,75,Open,,M,160,182.5,162.5,505,SBD,Single-ply,8
Dennis Jessup,82.5,Open,,M,255,175,280,710,SBD,Single-ply,1
Ed Caudle,82.5,Open,,M,255,195,262.5,712.5,SBD,Single-ply,2
Bill Schmidt,82.5,Open,,M,265,170,275,710,SBD,Single-ply,3
Sam Smith #9,82.5,Open,,M,250,150,262.5,662.5,SBD,Single-ply,4
Wayne Fair,82.5,Open,,M,250,140,265,655,SBD,Single-ply,5
Alan Campos,82.5,Open,,M,250,135,262.5,647.5,SBD,Single-ply,6
Tim Clark,82.5,Open,,M,245,142.5,240,627.5,SBD,Single-ply,7
Bill Nusbaum,82.5,Open,,M,240,142.5,242.5,625,SBD,Single-ply,8
Lowell Hoisington,82.5,Open,,M,215,137.5,245,597.5,SBD,Single-ply,9
M. Sherrill,82.5,Open,,M,,,,,SBD,Single-ply,DQ
Alex Greyard,90,Open,,M,277.5,192.5,290,760,SBD,Single-ply,1
Joe Haithcox,90,Open,,M,272.5,195,275,742.5,SBD,Single-ply,2
Randy Sheffield,90,Open,,M,280,160,287.5,727.5,SBD,Single-ply,3
Joey Calisto,90,Open,,M,275,170,280,725,SBD,Single-ply,4
Marty Ferrell,90,Open,,M,227.5,180,275,682.5,SBD,Single-ply,5
Dan Cole,90,Open,,M,262.5,155,262.5,680,SBD,Single-ply,6
Mike Oliver,90,Open,,M,240,192.5,242.5,675,SBD,Single-ply,7
Archie Slater,90,Open,,M,217.5,152.5,227.5,597.5,SBD,Single-ply,8
Bill Clary,90,Open,,M,305,,,,SBD,Single-ply,DQ
Eric Woods,90,Open,,M,,,,,SBD,Single-ply,DQ
Rob Hamm,90,Open,,M,,,,,SBD,Single-ply,DQ
Chris Huck,90,Open,,M,,,,,SBD,Single-ply,DQ
Danny Plyler,100,Open,,M,275,205,300,780,SBD,Single-ply,1
Greg Ferguson,100,Open,,M,305,162.5,302.5,770,SBD,Single-ply,2
Randy Reittinger,100,Open,,M,287.5,160,282.5,730,SBD,Single-ply,3
Tim Bondurant,100,Open,,M,257.5,155,292.5,705,SBD,Single-ply,4
Gary Hingleton,100,Open,,M,262.5,162.5,275,700,SBD,Single-ply,5
John Serra,100,Open,,M,280,172.5,,,SBD,Single-ply,DQ
William Forbes,110,Open,,M,300,185,290,775,SBD,Single-ply,1
Phil Bodenheimer,110,Open,,M,277.5,192.5,285,755,SBD,Single-ply,2
Harold Collins,110,Open,,M,265,190,242.5,697.5,SBD,Single-ply,3
John Wrape,125,Open,,M,252.5,170,277.5,700,SBD,Single-ply,1
Vince Harrelson,125,Open,,M,277.5,147.5,227.5,652.5,SBD,Single-ply,2
Paul Sheedy,125+,Open,,M,332.5,192.5,320,845,SBD,Single-ply,1
Marty Corum,125+,Open,,M,300,182.5,250,732.5,SBD,Single-ply,2
Larry Bullard,125+,Open,,M,290,157.5,250,697.5,SBD,Single-ply,3
Carol Gaskey,44,Open,,F,92.5,42.5,122.5,257.5,SBD,Single-ply,1
Jeanine Farabee,52,Open,,F,97.5,45,117.5,260,SBD,Single-ply,1
B. Harvey,52,Open,,F,92.5,52.5,110,255,SBD,Single-ply,2
Sally Collins,56,Open,,F,95,47.5,120,262.5,SBD,Single-ply,1
Sandra Gay,56,Open,,F,95,40,102.5,237.5,SBD,Single-ply,2
Carolyn Manke,56,Open,,F,,,,,SBD,Single-ply,DQ
Judith Averbach,60,Open,,F,137.5,97.5,170,405,SBD,Single-ply,1
Donna Walter,60,Open,,F,82.5,45,110,237.5,SBD,Single-ply,2
Amy Bowen,75,Open,,F,145,72.5,160,377.5,SBD,Single-ply,1
Dotty Davis,75,Open,,F,142.5,60,147.5,350,SBD,Single-ply,2
Mary Helms,82.5,Open,,F,127.5,52.5,122.5,302.5,SBD,Single-ply,1
Adelita Swaim,56,Masters,40-999,F,70,42.5,97.5,210,SBD,Single-ply,1
Jerry Robbins,67.5,Masters,40-999,M,150,92.5,175,417.5,SBD,Single-ply,1
Fletcher Elliott,75,Masters,40-999,M,187.5,120,215,522.5,SBD,Single-ply,1
Frank Reynolds,82.5,Masters,40-999,M,182.5,120,147.5,450,SBD,Single-ply,1
Jerry Jackson,90,Masters,40-999,M,217.5,150,217.5,585,SBD,Single-ply,1
Mortie Hamilton,90,Masters,40-999,M,210,125,215,550,SBD,Single-ply,2
Tommy Coble,100,Masters,40-999,M,232.5,152.5,250,635,SBD,Single-ply,1
Red Swaim,110,Masters,40-999,M,272.5,162.5,272.5,707.5,SBD,Single-ply,1
David Stewart,110,Masters,40-999,M,212.5,140,250,602.5,SBD,Single-ply,2
Russ Murphy,110,Masters,40-999,M,200,145,220,565,SBD,Single-ply,3
Thurston Callahan,110,Masters,40-999,M,202.5,120,205,527.5,SBD,Single-ply,4
Buddy Nash,125,Masters,40-999,M,255,162.5,230,647.5,SBD,Single-ply,1
Buck Harris,125,Masters,40-999,M,190,122.5,220,532.5,SBD,Single-ply,2
