Division,WeightClassKg,Place,Name,Team,BodyweightKg,Best3SquatKg,Best3BenchKg,Best3DeadliftKg,TotalKg,Equipment,Event,Sex
Boys,51.71,1,Chandler Bush,Elysian Fields,51.62,140.61,70.31,154.22,365.14,Single-ply,SBD,M
Boys,51.71,2,Felix Espinoza,Crandall,51.44,136.08,79.38,147.42,362.87,Single-ply,SBD,M
Boys,51.71,3,Trace Woodruff,Crandall,50.62,104.33,65.77,111.13,281.23,Single-ply,SBD,M
Boys,51.71,4,Sebastian Urteaga,Eustace,49.08,120.2,52.16,104.33,276.69,Single-ply,SBD,M
Boys,51.71,5,Roman Colsten,Commerce,50.98,102.06,45.36,102.06,249.48,Single-ply,SBD,M
Boys,51.71,6,Alec Page,Tyler Lee,47.9,61.23,40.82,74.84,176.9,Single-ply,SBD,M
Boys,55.79,1,BJ Stidham,Gladewater Sabine,53.61,185.97,97.52,174.63,458.13,Single-ply,SBD,M
Boys,55.79,2,Angel Barroso,Tyler Chapel Hill,55.07,111.13,92.99,136.08,340.19,Single-ply,SBD,M
Boys,55.79,3,Kile Stripland,Gladewater Sabine,55.7,117.93,83.91,131.54,333.39,Single-ply,SBD,M
Boys,55.79,4,Richard Rodriguez,Whitehouse,55.52,124.74,74.84,131.54,331.12,Single-ply,SBD,M
Boys,55.79,5,M Dorsey,Lindale,55.79,113.4,63.5,136.08,312.98,Single-ply,SBD,M
Boys,55.79,6,Vann Rainer,Tyler Lee,55.7,115.67,58.97,120.2,294.84,Single-ply,SBD,M
Boys,55.79,7,Lukas Gill,Tyler Lee,54.07,102.06,65.77,111.13,278.96,Single-ply,SBD,M
Boys,55.79,8,Samuel Shankles,Longview Spring Hill,55.34,99.79,58.97,117.93,276.69,Single-ply,SBD,M
Boys,59.87,1,Tristan Larsen,Tyler Chapel Hill,58.88,161.03,88.45,172.37,421.84,Single-ply,SBD,M
Boys,59.87,2,David Nava,Mount Pleasant,59.33,120.2,68.04,136.08,324.32,Single-ply,SBD,M
Boys,59.87,3,Kemon Ross,Palestine,59.87,111.13,70.31,124.74,306.17,Single-ply,SBD,M
Boys,59.87,4,Mario Carrasco,Whitehouse,58.79,92.99,68.04,120.2,281.23,Single-ply,SBD,M
Boys,59.87,5,Nathan Tarkington,Tyler Chapel Hill,57.06,92.99,52.16,115.67,260.82,Single-ply,SBD,M
Boys,67.13,1,Jaden Taylor,Lindale,66.22,183.7,92.99,199.58,476.27,Single-ply,SBD,M
Boys,67.13,2,Jaiden Garrick,Lindale,62.14,156.49,92.99,183.7,433.18,Single-ply,SBD,M
Boys,67.13,3,Korrighan Smith,Commerce,64.14,154.22,86.18,158.76,399.16,Single-ply,SBD,M
Boys,67.13,4,Trent Adams,Tyler Lee,66.77,165.56,77.11,142.88,385.55,Single-ply,SBD,M
Boys,67.13,5,Braiden Miller,Whitehouse,65.77,142.88,92.99,138.35,374.21,Single-ply,SBD,M
Boys,67.13,6,Tony Mason,Elysian Fields,66.13,142.88,77.11,151.95,371.95,Single-ply,SBD,M
Boys,67.13,7,Alex Tellez,Tyler Chapel Hill,64.5,133.81,79.38,154.22,367.41,Single-ply,SBD,M
Boys,67.13,8,John Ford #3,Troup,66.41,142.88,79.38,142.88,365.14,Single-ply,SBD,M
Boys,67.13,9,Kaden Mahoney,Troup,63.87,136.08,79.38,140.61,356.07,Single-ply,SBD,M
Boys,67.13,10,Antonio Landaverde,Mount Pleasant,64.41,131.54,74.84,133.81,340.19,Single-ply,SBD,M
Boys,67.13,11,Tyler Hunt,Palestine,61.23,120.2,83.91,133.81,337.93,Single-ply,SBD,M
Boys,67.13,12,Kasey Villareal,Lindale,64.86,136.08,65.77,136.08,337.93,Single-ply,SBD,M
Boys,67.13,13,Zane Phillips,Mount Pleasant,64.59,124.74,68.04,142.88,335.66,Single-ply,SBD,M
Boys,67.13,14,Tayon Huntley,Palestine,65.59,136.08,70.31,129.27,335.66,Single-ply,SBD,M
Boys,67.13,15,Jesse Calley,Troup,65.73,120.2,65.77,145.15,331.12,Single-ply,SBD,M
Boys,67.13,16,Alex Vasseleck,Mount Pleasant,63.23,120.2,63.5,120.2,303.91,Single-ply,SBD,M
Boys,67.13,17,Jeremiah Ramirez,Troup,66.5,104.33,70.31,129.27,303.91,Single-ply,SBD,M
Boys,67.13,18,Jose Lopez,Grand Saline,60.87,111.13,70.31,120.2,301.64,Single-ply,SBD,M
Boys,67.13,19,Cagen Clark,Palestine,65.23,106.59,70.31,120.2,297.1,Single-ply,SBD,M
Boys,67.13,20,Julio Palacios,Palestine,60.33,106.59,83.91,99.79,290.3,Single-ply,SBD,M
Boys,67.13,21,Hunter Clemmons,Tyler Lee,61.14,99.79,52.16,136.08,288.03,Single-ply,SBD,M
Boys,67.13,DQ,Ben Villegas,Jacksonville,64.77,,,,,Single-ply,SBD,M
Boys,67.13,DQ,Gavin West,Forney,67.04,,,,,Single-ply,SBD,M
Boys,74.84,1,Jamichael Turman,Tyler Lee,71.4,206.38,113.4,204.12,523.9,Single-ply,SBD,M
Boys,74.84,2,Billy Long,Ore City,72.57,197.31,124.74,201.85,523.9,Single-ply,SBD,M
Boys,74.84,3,Bryce Attaway,Troup,74.3,195.04,122.47,195.04,512.56,Single-ply,SBD,M
Boys,74.84,4,Chadd Cole,Troup,70.13,188.24,108.86,190.51,487.61,Single-ply,SBD,M
Boys,74.84,5,Daniel Benitez,Lindale,71.67,163.29,90.72,195.04,449.06,Single-ply,SBD,M
Boys,74.84,6,Akil Lewis,Forney,67.68,158.76,95.25,174.63,428.64,Single-ply,SBD,M
Boys,74.84,7,Devon Rundles,Forney,70.22,151.95,111.13,161.03,424.11,Single-ply,SBD,M
Boys,74.84,8,Aaron Mount,Forney,71.3,163.29,92.99,167.83,424.11,Single-ply,SBD,M
Boys,74.84,9,Gerardo Ramirez,Jacksonville,73.03,151.95,97.52,163.29,412.77,Single-ply,SBD,M
Boys,74.84,10,Connor Straghan,Commerce,74.57,170.1,92.99,142.88,405.97,Single-ply,SBD,M
Boys,74.84,11,Bryce Gregory,Tyler Lee,69.13,147.42,97.52,158.76,403.7,Single-ply,SBD,M
Boys,74.84,12,Alec Morris,Gladewater Sabine,68.49,149.69,102.06,142.88,394.63,Single-ply,SBD,M
Boys,74.84,13,Conner Smith,Commerce,69.58,142.88,95.25,145.15,383.29,Single-ply,SBD,M
Boys,74.84,14,Ethan Watson,Crandall,72.21,142.88,95.25,127.01,365.14,Single-ply,SBD,M
Boys,74.84,15,Justin Henson,Eustace,74.66,140.61,86.18,138.35,365.14,Single-ply,SBD,M
Boys,74.84,16,Bragen Gross,Crandall,67.86,129.27,83.91,136.08,349.27,Single-ply,SBD,M
Boys,74.84,17,Jacob Grimes,Crandall,71.58,124.74,88.45,113.4,326.59,Single-ply,SBD,M
Boys,74.84,18,Evan Watkins,Lindale,70.31,72.57,38.56,81.65,192.78,Single-ply,SBD,M
Boys,74.84,19,Isaac Estrada,Lindale,74.84,56.7,45.36,74.84,176.9,Single-ply,SBD,M
Boys,74.84,20,Cameron Glass,Jacksonville,69.49,133.81,,,133.81,Single-ply,S,M
Boys,74.84,DQ,Alexis Medellin,Jacksonville,68.49,,,,,Single-ply,SBD,M
Boys,74.84,DQ,Jake Hyder,Forney,72.12,,,,,Single-ply,SBD,M
Boys,74.84,DQ,Hunter Carrell,Forney,74.57,,,,,Single-ply,SBD,M
Boys,82.1,1,Brayden Bulman,Whitehouse,81.37,217.72,142.88,229.06,589.67,Single-ply,SBD,M
Boys,82.1,2,Jared McLean,Tyler Lee,79.29,185.97,113.4,208.65,508.02,Single-ply,SBD,M
Boys,82.1,3,Michael Marrs,Longview Spring Hill,80.47,170.1,115.67,204.12,489.88,Single-ply,SBD,M
Boys,82.1,4,Daniel Bautista,Mount Pleasant,81.92,174.63,95.25,179.17,449.06,Single-ply,SBD,M
Boys,82.1,5,Joshua Farrar,Whitehouse,82.1,156.49,113.4,165.56,435.45,Single-ply,SBD,M
Boys,82.1,6,Tristian Wilhait,Whitehouse,80.38,151.95,92.99,183.7,428.64,Single-ply,SBD,M
Boys,82.1,7,Matthew Shankles,Longview Spring Hill,80.47,163.29,102.06,163.29,428.64,Single-ply,SBD,M
Boys,82.1,8,Jacob Huddleson,Jacksonville,75.84,158.76,95.25,165.56,419.57,Single-ply,SBD,M
Boys,82.1,9,Kole Stripland,Gladewater Sabine,77.56,149.69,106.59,154.22,410.5,Single-ply,SBD,M
Boys,82.1,10,Daniel Wood,Gladewater Sabine,82.01,151.95,90.72,158.76,401.43,Single-ply,SBD,M
Boys,82.1,11,Jamarcus Mumphrey,Tyler Chapel Hill,79.83,133.81,97.52,154.22,385.55,Single-ply,SBD,M
Boys,82.1,12,Eden Mayhall,Palestine,81.19,115.67,99.79,158.76,374.21,Single-ply,SBD,M
Boys,82.1,13,Tucker Williams,Lindale,80.29,129.27,83.91,140.61,353.8,Single-ply,SBD,M
Boys,82.1,14,Wilder Gross,Crandall,76.11,145.15,83.91,151.95,381.02,Single-ply,SBD,M
Boys,82.1,15,Aj Mcgahee,Tyler Chapel Hill,81.01,117.93,56.7,117.93,292.57,Single-ply,SBD,M
Boys,82.1,DQ,Kurtis Rush,Forney,77.93,,,,,Single-ply,SBD,M
Boys,82.1,DQ,Greyson Burrus,Forney,79.11,,,,,Single-ply,SBD,M
Boys,82.1,DQ,Kaden McFaul,Longview Spring Hill,75.57,,,,,Single-ply,SBD,M
Boys,82.1,DQ,Brody Barnhill,Longview Spring Hill,75.39,,,,,Single-ply,SBD,M
Boys,82.1,DQ,Ebin Retz,Lindale,78.29,68.04,,,,Single-ply,SBD,M
Boys,89.81,1,Ethan Thornton,Lindale,89.81,226.8,124.74,219.99,571.53,Single-ply,SBD,M
Boys,89.81,2,Brandon Holland,Grand Saline,83.46,204.12,102.06,188.24,494.42,Single-ply,SBD,M
Boys,89.81,3,Tyler Bryant,Crandall,88.81,190.51,111.13,190.51,492.15,Single-ply,SBD,M
Boys,89.81,4,Jonathan Woods #1,Mount Pleasant,88.27,185.97,115.67,185.97,487.61,Single-ply,SBD,M
Boys,89.81,5,Carson Hester,Gladewater Sabine,86.91,165.56,124.74,174.63,464.93,Single-ply,SBD,M
Boys,89.81,6,Luis Lajqi,Tyler Lee,82.55,163.29,86.18,183.7,433.18,Single-ply,SBD,M
Boys,89.81,7,Omahri Davis,Commerce,89.72,165.56,81.65,176.9,424.11,Single-ply,SBD,M
Boys,89.81,8,Tariq Woods,Tyler Lee,88.72,156.49,106.59,154.22,417.3,Single-ply,SBD,M
Boys,89.81,9,Tristan Turner,Jacksonville,84.73,142.88,92.99,165.56,401.43,Single-ply,SBD,M
Boys,89.81,10,Sy Ybarra,Whitehouse,86,133.81,92.99,147.42,374.21,Single-ply,SBD,M
Boys,89.81,11,Omar Webber,Lindale,88.45,120.2,83.91,158.76,362.87,Single-ply,SBD,M
Boys,89.81,DQ,Astin Ledbetter,Mount Pleasant,88.36,95.25,,,,Single-ply,SBD,M
Boys,99.79,1,Nick Gregory,Lindale,95.71,215.46,138.35,215.46,569.26,Single-ply,SBD,M
Boys,99.79,2,Reed Deatherage,Grand Saline,95.07,215.46,108.86,197.31,521.63,Single-ply,SBD,M
Boys,99.79,3,Liam Huynh,Whitehouse,98.43,183.7,106.59,197.31,487.61,Single-ply,SBD,M
Boys,99.79,4,Andrew Reed,Lindale,92.99,197.31,111.13,174.63,483.08,Single-ply,SBD,M
Boys,99.79,5,Adrian Lacy,Tyler Chapel Hill,92.71,188.24,92.99,192.78,474,Single-ply,SBD,M
Boys,99.79,6,Corjohnta Dunbar,Commerce,97.89,183.7,106.59,176.9,467.2,Single-ply,SBD,M
Boys,99.79,7,Makeyln Horn,Jacksonville,95.07,161.03,102.06,154.22,417.3,Single-ply,SBD,M
Boys,99.79,8,Giovanni Campos,Lindale,90.72,149.69,86.18,142.88,378.75,Single-ply,SBD,M
Boys,99.79,9,Raul Duran,Lindale,94.35,149.69,74.84,147.42,371.95,Single-ply,SBD,M
Boys,99.79,10,Reid Pinckard,Mount Pleasant,93.89,142.88,74.84,120.2,337.93,Single-ply,SBD,M
Boys,99.79,11,Kade Fry,Tyler Lee,96.34,140.61,77.11,120.2,337.93,Single-ply,SBD,M
Boys,99.79,12,Yahir Soto,Lindale,98.97,136.08,74.84,117.93,328.85,Single-ply,SBD,M
Boys,99.79,13,Landen Dry,Lindale,96.71,102.06,70.31,136.08,308.44,Single-ply,SBD,M
Boys,99.79,DQ,Tristan Wilmeth,Palestine,91.9,102.06,,,,Single-ply,SBD,M
Boys,109.77,1,James Sandifer,Lindale,107.05,219.99,122.47,226.8,569.26,Single-ply,SBD,M
Boys,109.77,2,Johnathan Housley,Whitehouse,105.96,208.65,138.35,213.19,560.19,Single-ply,SBD,M
Boys,109.77,3,Cedric Hicks,Palestine,103.78,229.06,138.35,161.03,528.44,Single-ply,SBD,M
Boys,109.77,4,Matthew Guevara,Ore City,101.51,201.85,131.54,192.78,526.17,Single-ply,SBD,M
Boys,109.77,5,Jackson Smith,Tyler Chapel Hill,102.87,201.85,108.86,215.46,526.17,Single-ply,SBD,M
Boys,109.77,6,Anthony Peak,Commerce,108.59,195.04,136.08,195.04,526.17,Single-ply,SBD,M
Boys,109.77,7,Jacob Kimbrough,Longview Spring Hill,108.14,183.7,102.06,174.63,460.4,Single-ply,SBD,M
Boys,109.77,8,Brandon Krenek,Longview Spring Hill,101.7,190.51,104.33,158.76,453.59,Single-ply,SBD,M
Boys,109.77,9,Zach Baggett #1,Lindale,104.78,170.1,95.25,181.44,446.79,Single-ply,SBD,M
Boys,109.77,10,Tariq Robinson,Tyler Lee,107.23,165.56,113.4,133.81,412.77,Single-ply,SBD,M
Boys,109.77,11,Caleb Pittman,Whitehouse,101.7,136.08,83.91,147.42,367.41,Single-ply,SBD,M
Boys,109.77,12,Zala Antonio,Jacksonville,105.14,131.54,86.18,149.69,367.41,Single-ply,SBD,M
Boys,109.77,DQ,Seth Bell,Forney,103.51,,,,,Single-ply,SBD,M
Boys,124.74,1,Cason Cheney,Lindale,124.74,254.01,145.15,215.46,614.62,Single-ply,SBD,M
Boys,124.74,2,Coty Neugin,Crandall,124.74,251.74,147.42,210.92,610.08,Single-ply,SBD,M
Boys,124.74,3,Jace Phillips #1,Lindale,120.2,213.19,117.93,224.53,555.65,Single-ply,SBD,M
Boys,124.74,4,Jashon Pogue,Mount Pleasant,111.49,192.78,122.47,238.14,553.38,Single-ply,SBD,M
Boys,124.74,5,George Lias,Mount Pleasant,111.58,226.8,113.4,213.19,553.38,Single-ply,SBD,M
Boys,124.74,6,Luis Garcia #7,Eustace,122.83,219.99,129.27,197.31,546.58,Single-ply,SBD,M
Boys,124.74,7,Anthony Cork,Commerce,122.2,215.46,131.54,195.04,542.04,Single-ply,SBD,M
Boys,124.74,8,Jagger Ochoa,Lindale,111.13,204.12,102.06,199.58,505.76,Single-ply,SBD,M
Boys,124.74,9,Moses Medrano,Lindale,114.31,183.7,102.06,192.78,478.54,Single-ply,SBD,M
Boys,124.74,10,Ivan Elizondo,Mount Pleasant,114.76,181.44,104.33,190.51,476.27,Single-ply,SBD,M
Boys,124.74,11,Lance Deal,Whitehouse,111.13,179.17,108.86,183.7,471.74,Single-ply,SBD,M
Boys,124.74,12,Everett Stapleton,Commerce,117.57,165.56,83.91,204.12,453.59,Single-ply,SBD,M
Boys,124.74,13,Jayston Jones,Commerce,114.03,174.63,117.93,154.22,446.79,Single-ply,SBD,M
Boys,124.74,14,Donovan Jordan,Tyler Lee,110.5,165.56,90.72,185.97,442.25,Single-ply,SBD,M
Boys,124.74,15,Tony Natera,Longview Spring Hill,111.67,151.95,83.91,192.78,428.64,Single-ply,SBD,M
Boys,124.74,16,Blake Mays,Mount Pleasant,111.77,154.22,108.86,149.69,412.77,Single-ply,SBD,M
Boys,124.74,DQ,Mason Mitchell,Palestine,110.59,113.4,,,,Single-ply,SBD,M
Boys,124.74,DQ,Colby Bowles,Longview Spring Hill,122.38,,,,,Single-ply,SBD,M
Boys,124.74,DQ,Brayden Price,Tyler Chapel Hill,114.76,201.85,113.4,,,Single-ply,SBD,M
Boys,124.74+,1,Malik Gilliam,Troup,171.28,294.84,142.88,226.8,664.51,Single-ply,SBD,M
Boys,124.74+,2,Dejaun Ealy,Palestine,133.9,240.4,188.24,226.8,655.44,Single-ply,SBD,M
Boys,124.74+,3,Matthew Davis #4,Lindale,176.9,265.35,145.15,238.14,648.64,Single-ply,SBD,M
Boys,124.74+,4,Carson Manasse,Longview Spring Hill,128.82,233.6,142.88,242.67,619.15,Single-ply,SBD,M
Boys,124.74+,5,Jesse Hamelink,Lindale,126.55,219.99,145.15,242.67,607.81,Single-ply,SBD,M
Boys,124.74+,6,Cade Crawford,Forney,139.34,265.35,136.08,181.44,582.87,Single-ply,SBD,M
Boys,124.74+,7,Chad Fancher,Eustace,131.18,204.12,165.56,197.31,566.99,Single-ply,SBD,M
Boys,124.74+,8,Kendale Johnson,Tyler Chapel Hill,199.13,226.8,136.08,195.04,557.92,Single-ply,SBD,M
Boys,124.74+,9,Michael Sutton,Tyler Chapel Hill,125.83,217.72,124.74,192.78,535.24,Single-ply,SBD,M
Boys,124.74+,10,Luke Sandifer,Lindale,130.63,195.04,106.59,190.51,492.15,Single-ply,SBD,M
Boys,124.74+,DQ,Demaree Gray,Crandall,167.74,,,,,Single-ply,SBD,M
