Name,Age,Division,Sex,BodyweightKg,WeightClassKg,Squat1Kg,Squat2Kg,Squat3Kg,Squat4Kg,Best3SquatKg,Bench1Kg,Bench2Kg,Bench3Kg,Bench4Kg,Best3BenchKg,Deadlift1Kg,Deadlift2Kg,Deadlift3Kg,Deadlift4Kg,Best3DeadliftKg,TotalKg,Place,Team,Event,Equipment,BirthDate
Cody Brown #1,25,F-OR,F,109.7,110,200,210,-220,,210,95,100,105,,105,190,200,-210,,200,515,2,,SBD,Wraps,
Ian Neil,67,M-OR,M,92.4,100,145,152.5,-157.5,,152.5,-125,125,130,131,130,185,192.5,-197.5,,192.5,475,2,,SBD,Wraps,
James Mcerlain,27,M-OR,M,95.6,100,180,200,215,,215,135,145,-150,,145,240,260,280,,280,640,1,,SBD,Wraps,
Sarah Rainbow,24,F-OR,F,99.6,110,-210,-230,230,,230,130,140,147.5,,147.5,220,237.5,-245,,237.5,615,1,,SBD,Wraps,
