Division,WeightClassKg,Place,Name,Team,BodyweightKg,Best3SquatKg,Best3BenchKg,Best3DeadliftKg,TotalKg,Equipment,Event,Sex
Boys,51.71,1,Sammy Ortega,Hutto,50.98,113.4,68.04,136.08,317.51,Single-ply,SBD,M
Boys,51.71,2,Seth Solis,Troy,44.81,108.86,61.23,117.93,288.03,Single-ply,SBD,M
Boys,51.71,3,Raymond Sifuentes,Hearne,51.17,90.72,68.04,124.74,283.5,Single-ply,SBD,M
Boys,51.71,4,David Hernandez,Hearne,51.17,90.72,65.77,122.47,278.96,Single-ply,SBD,M
Boys,51.71,5,Juan Rodriguez,Hearne,48.99,95.25,38.56,117.93,251.74,Single-ply,SBD,M
Boys,51.71,6,Colton Gober,Troy,46.99,74.84,36.29,92.99,204.12,Single-ply,SBD,M
Boys,51.71,7,Ty Zimmer,Troy,45.99,68.04,38.56,90.72,197.31,Single-ply,SBD,M
Boys,51.71,8,Logan Motley,Hubbard,49.71,61.23,36.29,61.23,158.76,Single-ply,SBD,M
Boys,55.79,1,Gilbert Velasquez,Taylor,54.07,136.08,77.11,115.67,328.85,Single-ply,SBD,M
Boys,55.79,2,Lorenzo Sanchez,Taylor,53.34,108.86,79.38,136.08,324.32,Single-ply,SBD,M
Boys,55.79,3,Davion Aldridge,Hutto,52.62,113.4,63.5,136.08,312.98,Single-ply,SBD,M
Boys,55.79,4,Jacob Powell,Little River Academy,52.62,113.4,58.97,124.74,297.1,Single-ply,SBD,M
Boys,59.87,5,Cornell Thompson,Hearne,55.97,79.38,49.9,113.4,242.67,Single-ply,SBD,M
Boys,59.87,6,Mitchell Moore,Hubbard,55.88,97.52,,111.13,208.65,Single-ply,SD,M
Boys,59.87,1,Ernan Lopez,Hutto,59.06,138.35,88.45,161.03,387.82,Single-ply,SBD,M
Boys,59.87,2,Freddy Hernandez #1,Hearne,58.88,124.74,72.57,163.29,360.61,Single-ply,SBD,M
Boys,59.87,3,Jake Schmidt,Troy,57.06,124.74,90.72,138.35,353.8,Single-ply,SBD,M
Boys,59.87,4,Joseph Bravo,Waco Reicher Catholic,58.69,106.59,65.77,127.01,299.37,Single-ply,SBD,M
Boys,59.87,5,Caden Forisha,Hutto,59.15,104.33,63.5,124.74,292.57,Single-ply,SBD,M
Boys,59.87,6,Kaden Trice,Salado,57.42,108.86,52.16,124.74,285.76,Single-ply,SBD,M
Boys,59.87,7,Dustin Free,Salado,59.78,129.27,,,129.27,Single-ply,S,M
Boys,67.13,1,David Salazar,Taylor,65.86,215.46,106.59,199.58,521.63,Single-ply,SBD,M
Boys,67.13,2,Bryce Williams,Little River Academy,66.77,181.44,86.18,181.44,449.06,Single-ply,SBD,M
Boys,67.13,3,Justis Owens,Hutto,67.04,158.76,97.52,174.63,430.91,Single-ply,SBD,M
Boys,67.13,4,Corey Robinson,Hearne,62.87,147.42,102.06,165.56,415.04,Single-ply,SBD,M
Boys,67.13,5,Roy Ward,Waco Reicher Catholic,65.59,167.83,88.45,158.76,415.04,Single-ply,SBD,M
Boys,67.13,6,Travis Stone,Rogers,64.59,170.1,74.84,165.56,410.5,Single-ply,SBD,M
Boys,67.13,7,Will Tolliver,Hearne,65.59,140.61,95.25,174.63,410.5,Single-ply,SBD,M
Boys,67.13,8,Jose Martinez,Cameron Yoe,67.13,142.88,99.79,149.69,392.36,Single-ply,SBD,M
Boys,67.13,9,Jose Martinez-Gonzalez,Taylor,63.32,158.76,88.45,131.54,378.75,Single-ply,SBD,M
Boys,67.13,10,Malcolm Hollins,Taylor,65.05,136.08,95.25,145.15,376.48,Single-ply,SBD,M
Boys,67.13,11,LaRon Haynes,Hutto,65.32,136.08,79.38,151.95,367.41,Single-ply,SBD,M
Boys,67.13,12,Hunter Solano,Waco Reicher Catholic,65.23,145.15,77.11,142.88,365.14,Single-ply,SBD,M
Boys,67.13,13,Aaron Sharp,Little River Academy,66.22,124.74,74.84,138.35,337.93,Single-ply,SBD,M
Boys,67.13,14,Aaron Bettge,Waco Reicher Catholic,61.69,133.81,70.31,129.27,333.39,Single-ply,SBD,M
Boys,67.13,15,Chase Randolph,Little River Academy,65.59,124.74,61.23,140.61,326.59,Single-ply,SBD,M
Boys,67.13,16,Tyler Deroulac,Hutto,61.6,115.67,65.77,120.2,301.64,Single-ply,SBD,M
Boys,67.13,17,Kylan Wylie,Taylor,61.87,102.06,65.77,102.06,269.89,Single-ply,SBD,M
Boys,67.13,18,Victor Davaloz,Hearne,62.14,117.93,,142.88,260.82,Single-ply,SD,M
Boys,74.84,1,Erik Estrada,Hutto,73.48,195.04,106.59,226.8,528.44,Single-ply,SBD,M
Boys,74.84,2,Chris Zavodny,Rogers,73.84,183.7,111.13,226.8,521.63,Single-ply,SBD,M
Boys,74.84,3,Zach Robinson,Salado,73.21,199.58,117.93,195.04,512.56,Single-ply,SBD,M
Boys,74.84,4,Josh Robinson,Salado,73.21,183.7,133.81,190.51,508.02,Single-ply,SBD,M
Boys,74.84,5,Michael Fitzhugh,Waco Reicher Catholic,71.94,188.24,113.4,197.31,498.95,Single-ply,SBD,M
Boys,74.84,6,Tristan Dudley,Rogers,73.84,183.7,124.74,188.24,496.68,Single-ply,SBD,M
Boys,74.84,7,Zachary Riola,Cameron Yoe,74.39,170.1,122.47,174.63,467.2,Single-ply,SBD,M
Boys,74.84,8,Kyle Castilleja,Hearne,70.58,154.22,90.72,208.65,453.59,Single-ply,SBD,M
Boys,74.84,9,Zach Smith #11,Little River Academy,69.76,158.76,102.06,170.1,430.91,Single-ply,SBD,M
Boys,74.84,10,Braxton Buchannan,Hutto,71.3,142.88,92.99,156.49,392.36,Single-ply,SBD,M
Boys,74.84,11,Marco Castro,Waco Reicher Catholic,73.3,199.58,,185.97,385.55,Single-ply,SD,M
Boys,74.84,12,Josue Garcia,Jarrell,70.13,136.08,92.99,149.69,378.75,Single-ply,SBD,M
Boys,74.84,13,Kevin Demps,Hutto,72.3,129.27,70.31,151.95,351.53,Single-ply,SBD,M
Boys,82.1,1,Marcos Cardenas,Jarrell,80.83,199.58,138.35,222.26,560.19,Single-ply,SBD,M
Boys,82.1,2,Luke Evans,Hutto,81.83,188.24,111.13,217.72,517.1,Single-ply,SBD,M
Boys,82.1,3,James Bradford,Troy,79.38,188.24,142.88,183.7,514.83,Single-ply,SBD,M
Boys,82.1,4,David Cortes,Jarrell,80.38,190.51,124.74,190.51,505.76,Single-ply,SBD,M
Boys,82.1,5,Josh Scherer,Little River Academy,78.29,192.78,111.13,195.04,498.95,Single-ply,SBD,M
Boys,82.1,6,Bailey Guynes,Troy,79.02,181.44,111.13,190.51,483.08,Single-ply,SBD,M
Boys,82.1,7,Victor Moya,Jarrell,77.02,170.1,108.86,172.37,451.32,Single-ply,SBD,M
Boys,82.1,8,Chris Gutierrez,Hutto,79.74,145.15,90.72,167.83,403.7,Single-ply,SBD,M
Boys,82.1,9,Dillon Mayes,Hutto,81.01,149.69,92.99,158.76,401.43,Single-ply,SBD,M
Boys,82.1,10,Ricky Sampson,Salado,79.02,158.76,88.45,136.08,383.29,Single-ply,SBD,M
Boys,82.1,11,Allen Odom,Hutto,81.01,140.61,88.45,154.22,383.29,Single-ply,SBD,M
Boys,82.1,12,Chris Lewis,Cameron Yoe,80.92,104.33,68.04,170.1,342.46,Single-ply,SBD,M
Boys,82.1,13,Kenny Sullivan,Hubbard,79.47,120.2,83.91,129.27,333.39,Single-ply,SBD,M
Boys,82.1,14,Da'Mario Victorian,Little River Academy,76.2,,111.13,195.04,306.17,Single-ply,BD,M
Boys,82.1,15,Buddy Catlett,Little River Academy,78.74,131.54,92.99,,224.53,Single-ply,SB,M
Boys,89.81,1,Omar Cardoso,Waco Reicher Catholic,89.09,226.8,129.27,249.48,605.55,Single-ply,SBD,M
Boys,89.81,2,MarcJavion McGrew,Hearne,86.73,217.72,124.74,233.6,576.06,Single-ply,SBD,M
Boys,89.81,3,Ernie Jaime,Jarrell,83.82,213.19,149.69,195.04,557.92,Single-ply,SBD,M
Boys,89.81,4,Luis Villafranco,Salado,86.55,215.46,113.4,185.97,514.83,Single-ply,SBD,M
Boys,89.81,5,Victor Mendoza,Hearne,86.45,192.78,117.93,192.78,503.49,Single-ply,SBD,M
Boys,89.81,6,Brody Malovets,Rogers,86.18,174.63,102.06,204.12,480.81,Single-ply,SBD,M
Boys,89.81,7,Brandon Bruce,Rogers,88.63,183.7,106.59,165.56,455.86,Single-ply,SBD,M
Boys,89.81,8,Zach Schleffer,Troy,87.18,145.15,95.25,136.08,376.48,Single-ply,SBD,M
Boys,89.81,9,Griffin Smith,Troy,83.1,138.35,79.38,140.61,358.34,Single-ply,SBD,M
Boys,89.81,10,Cody Trammell,Troy,85.28,127.01,74.84,138.35,340.19,Single-ply,SBD,M
Boys,99.79,11,DeAndre Adams,Cameron Yoe,89.99,104.33,83.91,111.13,299.37,Single-ply,SBD,M
Boys,99.79,1,Chasin Allen,Hutto,98.25,215.46,131.54,238.14,585.13,Single-ply,SBD,M
Boys,99.79,2,Josef Fowler,Rogers,96.8,226.8,147.42,208.65,582.87,Single-ply,SBD,M
Boys,99.79,3,Joseph Huffman,Rogers,97.25,174.63,122.47,183.7,480.81,Single-ply,SBD,M
Boys,99.79,4,Tyler Talbott,Salado,95.07,185.97,108.86,183.7,478.54,Single-ply,SBD,M
Boys,99.79,5,Cristain Contreras,Hearne,96.71,176.9,111.13,172.37,460.4,Single-ply,SBD,M
Boys,99.79,6,Juan Valverde,Cameron Yoe,91.53,185.97,104.33,158.76,449.06,Single-ply,SBD,M
Boys,99.79,7,Michael Padgett,Troy,99.52,181.44,111.13,147.42,439.98,Single-ply,SBD,M
Boys,99.79,8,O'Neil Patterson,Hutto,92.17,140.61,104.33,167.83,412.77,Single-ply,SBD,M
Boys,99.79,9,Thomas Hernandez,Troy,96.62,158.76,90.72,149.69,399.16,Single-ply,SBD,M
Boys,99.79,10,James Collins,Salado,97.34,124.74,83.91,124.74,333.39,Single-ply,SBD,M
Boys,99.79,11,Marcus Simpson,Hutto,95.25,117.93,68.04,138.35,324.32,Single-ply,SBD,M
Boys,99.79,12,Pablo Rodriguez,Cameron Yoe,95.62,113.4,68.04,124.74,306.17,Single-ply,SBD,M
Boys,109.77,1,Collin McMillan,Little River Academy,107.23,226.8,124.74,240.4,591.94,Single-ply,SBD,M
Boys,109.77,2,Peyton Womack,Salado,105.69,226.8,122.47,204.12,553.38,Single-ply,SBD,M
Boys,109.77,3,Cameron Mueck,Cameron Yoe,104.33,163.29,104.33,149.69,417.3,Single-ply,SBD,M
Boys,124.74,4,Jack Pirtle,Little River Academy,109.95,145.15,77.11,142.88,365.14,Single-ply,SBD,M
Boys,109.77,5,Brian McDonald,Cameron Yoe,108.95,54.43,56.7,86.18,197.31,Single-ply,SBD,M
Boys,124.74,1,Billy Golding,Salado,111.49,297.1,158.76,231.33,687.19,Single-ply,SBD,M
Boys,124.74,2,Ro Ruz,Hutto,114.21,226.8,138.35,251.74,616.89,Single-ply,SBD,M
Boys,124.74,3,John Pineda,Troy,115.76,226.8,120.2,222.26,569.26,Single-ply,SBD,M
Boys,124.74,4,Jody Hodges,Salado,111.58,226.8,127.01,188.24,542.04,Single-ply,SBD,M
Boys,124.74,5,Logan Martinez,Little River Academy,122.65,170.1,115.67,151.95,437.72,Single-ply,SBD,M
Boys,124.74,6,Abram Villescaz,Waco Reicher Catholic,111.31,156.49,77.11,188.24,421.84,Single-ply,SBD,M
Boys,124.74,7,Andrew French #2,Waco Reicher Catholic,115.94,136.08,86.18,163.29,385.55,Single-ply,SBD,M
Boys,124.74,8,Jarett Hodges,Salado,124.74,131.54,70.31,,201.85,Single-ply,SB,M
Boys,124.74,DQ,Tycom Wright,Taylor,113.4,,,,,Single-ply,SB,M
Boys,124.74+,1,Grayson Eaton,Little River Academy,162.93,238.14,151.95,204.12,594.21,Single-ply,SBD,M
Boys,124.74+,2,Jacob Jimmerson,Salado,134.44,192.78,106.59,158.76,458.13,Single-ply,SBD,M
Boys,124.74+,3,Bryan Jutson,Hearne,129.27,,95.25,174.63,269.89,Single-ply,BD,M
