Place,Name,CyrillicName,BirthYear,WeightClassKg,BodyweightKg,Best3SquatKg,Best3BenchKg,Best3DeadliftKg,TotalKg,Event,Equipment,Sex,Division
1,Valeriya Ievleva,Валерия Иевлева,1987,47,47,100,45,95,240,SBD,Single-ply,F,Open
1,Ekaterina Dushenina,Екатерина Душенина,1981,52,51.1,127.5,67.5,125,320,SBD,Single-ply,F,Open
2,Yanina Udarova,Янина Ударова,1988,52,51.45,110,62.5,105,277.5,SBD,Single-ply,F,Open
3,Anna Petkova,Анна Петкова,1991,52,51.2,95,67.5,95,257.5,SBD,Single-ply,F,Open
4,Ekaterina Okun,Екатерина Окунь,1994,52,51.75,87.5,52.5,107.5,247.5,SBD,Single-ply,F,Open
5,Anna Tikhonova,Анна Тихонова,1994,52,48,55,25,60,140,SBD,Single-ply,F,Open
DQ,Natalya Shchemelinina,Наталья Щемелинина,1978,52,52,112.5,,,,SBD,Single-ply,F,Open
DQ,Ekaterina Amunova,Екатерина Амунова,1987,52,51.3,105,,,,SBD,Single-ply,F,Open
DQ,Ivanna Pavlenok,Иванна Павленок,1983,52,51.55,85,,,,SBD,Single-ply,F,Open
NS,Aminat Kubanova,Аминат Кубанова,1992,52,,,,,,SBD,Single-ply,F,Open
1,Olesya Egorova,Олеся Егорова,1990,57,55.7,140,70,120,330,SBD,Single-ply,F,Open
2,Darya Osmanova,Дарья Османова,1988,57,57,125,75,115,315,SBD,Single-ply,F,Open
3,Anastasiya Eltsova,Анастасия Ельцова,1991,57,55.15,115,52.5,125,292.5,SBD,Single-ply,F,Open
1,Anfisa Slepneva,Анфиса Слепнева,1989,63,60.35,155,120,160,435,SBD,Single-ply,F,Open
2,Tatyana Lebedeva,Татьяна Лебедева,1990,63,62.95,160,100,160,420,SBD,Single-ply,F,Open
3,Tatyana Vinogradova,Татьяна Виноградова,1985,63,60.75,125,80,122.5,327.5,SBD,Single-ply,F,Open
4,Larisa Sorokina,Лариса Сорокина,1981,63,62.05,100,62.5,125,287.5,SBD,Single-ply,F,Open
5,Tatyana Kuzmina,Татьяна Кузьмина,1991,63,62.6,90,50,90,230,SBD,Single-ply,F,Open
6,Irina Safiullina,Ирина Сафиуллина,1993,63,57.9,55,30,65,150,SBD,Single-ply,F,Open
DQ,Anna Kolleganova,Анна Коллеганова,1990,63,57.5,112.5,,,,SBD,Single-ply,F,Open
DQ,Irina Abbazova,Ирина Аббазова,1994,63,63,95,50,,,SBD,Single-ply,F,Open
DQ,Elena Marushina,Елена Марушина,1988,63,61.5,,,,,SBD,Single-ply,F,Open
1,Irina Semenova,Ирина Семенова,1979,72,70.25,180,125,160,465,SBD,Single-ply,F,Open
2,Elizaveta Starchenko,Елизавета Старченко,1980,72,69.95,140,105,165,410,SBD,Single-ply,F,Open
3,Yuliya Ivanova,Юлия Иванова,1986,72,71.35,135,60,140,335,SBD,Single-ply,F,Open
4,Nadezhda Pikh,Надежда Пих,1977,72,70,130,80,120,330,SBD,Single-ply,F,Open
5,Evgeniya Druzhinina,Евгения Дружинина,1993,72,70.65,95,50,95,240,SBD,Single-ply,F,Open
6,Ekaterina Yashina,Екатерина Яшина,1991,72,71.7,65,40,80,185,SBD,Single-ply,F,Open
DQ,Anastasiya Timofeeva,Анастасия Тимофеева,1976,72,70.35,170,,,,SBD,Single-ply,F,Open
DQ,Olga Dunaeva,Ольга Дунаева,1989,72,63.15,,,,,SBD,Single-ply,F,Open
DQ,Ekaterina Gureva,Екатерина Гурьева,1985,72,63.85,,,,,SBD,Single-ply,F,Open
1,Svetlana Belyaeva,Светлана Беляева,1988,84,79,120,82.5,125,327.5,SBD,Single-ply,F,Open
1,Vasiliy Dementev,Василий Дементьев,1989,59,57.95,170,115,180,465,SBD,Single-ply,M,Open
2,Ilkin Mamedov,Илкин Мамедов,1987,59,57.35,120,100,160,380,SBD,Single-ply,M,Open
1,Sergey Pivnik,Сергей Пивник,1988,66,65.45,185,130,210,525,SBD,Single-ply,M,Open
2,Oleg Zabrodin,Олег Забродин,1990,66,62.2,165,95,172.5,432.5,SBD,Single-ply,M,Open
3,Vladislav Vasyuk,Владислав Васюк,1990,66,63.85,150,82.5,175,407.5,SBD,Single-ply,M,Open
1,Dmitriy Mamaev,Дмитрий Мамаев,1985,74,73.85,257.5,162.5,212.5,632.5,SBD,Single-ply,M,Open
2,Pavel Prudnikov,Павел Прудников,1988,74,70.5,245,175,205,625,SBD,Single-ply,M,Open
3,Vasiliy Motovilnik,Василий Мотовильник,1957,74,72.65,215,150,200,565,SBD,Single-ply,M,Open
4,Vladimir Meshchangin,Владимир Мещангин,1991,74,72.3,200,130,220,550,SBD,Single-ply,M,Open
5,Pavel Bondarenko,Павел Бондаренко,1991,74,72.25,187.5,135,200,522.5,SBD,Single-ply,M,Open
6,Ilya Smirnov,Илья Смирнов,1988,74,67.8,140,95,150,385,SBD,Single-ply,M,Open
DQ,Karen Muradyan,Карен Мурадян,1984,74,73.6,260,,,,SBD,Single-ply,M,Open
1,Alexey Kuzmin,Алексей Кузьмин,1982,83,82.25,325,200,300,825,SBD,Single-ply,M,Open
2,Anvar Bagmanov,Анвар Багманов,1988,83,83,300,180,280,760,SBD,Single-ply,M,Open
3,Sergey Obukhov,Сергей Обухов,1971,83,82.55,240,160,220,620,SBD,Single-ply,M,Open
4,Pavel Udarov,Павел Ударов,1978,83,81.4,230,160,210,600,SBD,Single-ply,M,Open
5,Aleksandr Stanovoy,Александр Становой,1990,83,78.5,222.5,142.5,225,590,SBD,Single-ply,M,Open
6,Ivan Nikolaev,Иван Николаев,1985,83,77.3,205,152.5,215,572.5,SBD,Single-ply,M,Open
7,Anatoliy Shilenkov,Анатолий Шиленков,1985,83,81.7,190,145,190,525,SBD,Single-ply,M,Open
8,Evgeniy Emelyanov,Евгений Емельянов,1988,83,79.5,200,122.5,200,522.5,SBD,Single-ply,M,Open
DQ,Ivan Klippenshteyn,Иван Клиппенштейн,1986,83,81.3,290,,,,SBD,Single-ply,M,Open
DQ,Oleg Pechnikov,Олег Печников,1993,83,75.4,,,,,SBD,Single-ply,M,Open
DQ,Ruslan Makhinya,Руслан Махиня,1979,83,82.55,,,,,SBD,Single-ply,M,Open
1,Sergey Lupin,Сергей Лупин,1991,93,91.1,325,200,260,785,SBD,Single-ply,M,Open
2,Vladimir Ivashkov,Владимир Ивашков,1989,93,92.85,310,187.5,255,752.5,SBD,Single-ply,M,Open
3,Aleksandr Azhotkin,Александр Ажоткин,1983,93,89.3,275,210,255,740,SBD,Single-ply,M,Open
4,Andrey Kostromtsov,Андрей Костромцов,1982,93,85.15,275,147.5,240,662.5,SBD,Single-ply,M,Open
5,Roman Kornev,Роман Корнев,1971,93,88.65,245,175,240,660,SBD,Single-ply,M,Open
6,Kirill Kudachkin,Кирилл Кудачкин,1985,93,92.7,240,180,225,645,SBD,Single-ply,M,Open
7,Roman Anshakov,Роман Аншаков,1981,93,92.45,200,215,210,625,SBD,Single-ply,M,Open
8,Andrey Morozov #3,Андрей Морозов,1986,93,91.35,210,155,235,600,SBD,Single-ply,M,Open
9,Nikolay Grishko,Николай Гришко,1980,93,91.9,205,165,215,585,SBD,Single-ply,M,Open
10,Sergey Savin,Сергей Савин,1981,93,85,217.5,140,215,572.5,SBD,Single-ply,M,Open
11,Roman Yulin,Роман Юлин,1980,93,91,165,100,175,440,SBD,Single-ply,M,Open
DQ,Oleg Lupa,Олег Лупа,1991,93,91.3,300,,,,SBD,Single-ply,M,Open
DQ,Nikita Tokvel,Никита Токвель,1988,93,89.1,245,,,,SBD,Single-ply,M,Open
DQ,Aleksey Grigorev,Алексей Григорьев,1986,93,92.5,,,,,SBD,Single-ply,M,Open
DQ,Aleksandr Spiridonov,Александр Спиридонов,1986,93,91.35,,,,,SBD,Single-ply,M,Open
DQ,Dmitriy Emelyanov,Дмитрий Емельянов,1984,93,92.7,,,,,SBD,Single-ply,M,Open
1,Eduard Maksimov,Эдуард Максимов,1971,105,102.65,315,245,290,850,SBD,Single-ply,M,Open
2,Vladimir Dergunov,Владимир Дергунов,1991,105,101,310,235,290,835,SBD,Single-ply,M,Open
3,Stanislav Piskovskiy,Станислав Писковский,1983,105,103.1,300,190,305,795,SBD,Single-ply,M,Open
4,Denis Vikulev,Денис Викульев,1985,105,105,290,185,307.5,782.5,SBD,Single-ply,M,Open
5,Ivan Konev #1,Иван Конев,1982,105,104.75,305,187.5,272.5,765,SBD,Single-ply,M,Open
6,Maksim Ivanov #3,Максим Иванов,1979,105,94.45,270,200,255,725,SBD,Single-ply,M,Open
7,Timur Sagatov,Тимур Сагатов,1979,105,99.65,250,180,240,670,SBD,Single-ply,M,Open
8,Maksim Timonin,Максим Тимонин,1981,105,95.9,240,170,240,650,SBD,Single-ply,M,Open
9,Artem Kozyrev,Артем Козырев,1986,105,101.6,235,170,225,630,SBD,Single-ply,M,Open
10,Aleksandr Kokorev,Александр Кокорев,1969,105,101.85,220,150,260,630,SBD,Single-ply,M,Open
11,Nikolay Litvinov,Николай Литвинов,1984,105,100.6,175,110,215,500,SBD,Single-ply,M,Open
DQ,Ivan Grebenshchikov,Иван Гребенщиков,1990,105,98,285,180,,,SBD,Single-ply,M,Open
DQ,Roman Denisenko,Роман Денисенко,1991,105,97.8,245,140,,,SBD,Single-ply,M,Open
DQ,Vladimir Lebedev,Владимир Лебедев,1984,105,98.6,265,,,,SBD,Single-ply,M,Open
DQ,Maksim Kapustin,Максим Капустин,1975,105,98.35,260,,,,SBD,Single-ply,M,Open
DQ,Sergey Gordeev,Сергей Гордеев,1992,105,97.65,242.5,,,,SBD,Single-ply,M,Open
DQ,Sergey Reshetnikov,Сергей Решетников,1981,105,101.85,220,,,,SBD,Single-ply,M,Open
DQ,Dmitriy Kuznetsov,Дмитрий Кузнецов,1976,105,99.6,,,,,SBD,Single-ply,M,Open
DQ,Artem Vorontsov,Артем Воронцов,1976,105,104.2,,,,,SBD,Single-ply,M,Open
DQ,Dmitriy Dudev,Дмитрий Дудев,1975,105,104.85,,,,,SBD,Single-ply,M,Open
1,Pavel Knysh,Павел Кныш,1980,120,118.55,400,232.5,280,912.5,SBD,Single-ply,M,Open
2,Vladimir Bogdanovskiy,Владимир Богдановский,1985,120,110.15,315,240,285,840,SBD,Single-ply,M,Open
3,Vladislav Skorodumov,Владислав Скородумов,1975,120,115.5,300,225,290,815,SBD,Single-ply,M,Open
4,Aleksandr Teplov,Александр Теплов,1973,120,117.5,305,190,305,800,SBD,Single-ply,M,Open
5,Dmitriy Korolev,Дмитрий Королев,1987,120,114.9,290,200,270,760,SBD,Single-ply,M,Open
6,Sergey Petrov,Сергей Петров,1987,120,114.8,260,185,260,705,SBD,Single-ply,M,Open
7,Evgeniy Pushkov,Евгений Пушков,1987,120,106.55,225,150,220,595,SBD,Single-ply,M,Open
DQ,Roman Sintsov,Роман Синцов,1984,120,120,240,,,,SBD,Single-ply,M,Open
DQ,Vladimir Shishkin,Владимир Шишкин,1969,120,116.15,,,,,SBD,Single-ply,M,Open
1,Roman Lebedev,Роман Лебедев,1981,120+,136.25,380,300,322.5,1002.5,SBD,Single-ply,M,Open
2,Aleksandr Merkulov,Александр Меркулов,1984,120+,126.25,330,210,300,840,SBD,Single-ply,M,Open
3,Andrey Chekomasov,Андрей Чекомасов,1988,120+,132,200,145,200,545,SBD,Single-ply,M,Open
DQ,Roman Abidzhba,Роман Абиджба,1988,120+,142.25,390,,,,SBD,Single-ply,M,Open
DQ,Artem Pakhomov,Артем Пахомов,1991,120+,158.7,235,,,,SBD,Single-ply,M,Open
DQ,Aleksandr Lysenko,Александр Лысенко,1984,120+,156.25,,,,,SBD,Single-ply,M,Open
DQ,Vladimir Verdiyanu,Владимир Вердияну,1984,120+,141.4,,,,,SBD,Single-ply,M,Open
DQ,Aleksey Kotov,Алексей Котов,1980,120+,120.85,,,,,SBD,Single-ply,M,Open
