Sex,WeightClassKg,EntryDate,Name,BirthDate,Country,Bench1Kg,Bench2Kg,Bench3Kg,Best3BenchKg,Bench4Kg,TotalKg,BodyweightKg,Event,Equipment,Division,Place
M,49,2017-03-21,Jhonny Andres Morales Gonzalez,1999-01-28,Colombia,-72,-72,-80,,,,44.1,B,Raw,Juniors,DQ
M,49,2017-03-21,Richard Flores #6,1997-07-15,Venezuela,60,73,-77,73,,73,48,B,Raw,Juniors,4
M,49,2017-03-21,Rodrigo Villamarin,1997-08-22,Argentina,87,-92,92,92,,92,46.4,B,Raw,Juniors,1
M,49,2017-03-21,Diego Enrique Silva Herrera,2001-09-26,Chile,-51,51,-60,51,,51,44.6,B,Raw,Juniors,5
M,49,2017-03-21,Lucas Manoel Dos Santos,2001-11-20,Brazil,75,-80,80,80,,80,45.6,B,Raw,Juniors,2
M,49,2017-03-21,Cesar Acosta,1999-01-02,Venezuela,50,-60,-60,50,,50,47.5,B,Raw,Juniors,6
M,49,2017-03-21,Marcos Gabriel Cruzato,1999-02-05,Brazil,-75,-75,77,77,,77,47.6,B,Raw,Juniors,3
M,54,2017-03-21,Diego Alberto Quispe Ramos,1998-12-08,Peru,-65,-68,-68,,,,53.4,B,Raw,Juniors,DQ
M,54,2017-03-21,Carlos Josue Monrroy Mendoza,2002-04-27,Panama,-55,-60,-60,,,,50.9,B,Raw,Juniors,DQ
M,54,2017-03-21,Carlos Manuel Yajue Gomez,1998-06-12,Colombia,-80,80,90,90,,90,51,B,Raw,Juniors,1
M,54,2017-03-21,Lucas Matheus Barbosa,1997-03-12,Brazil,-70,-70,-70,,,,51,B,Raw,Juniors,DQ
M,54,2017-03-21,Carlos Rodriguez,1999-07-29,Venezuela,-45,50,-61,50,,50,52.1,B,Raw,Juniors,2
M,59,2017-03-22,Brayan Arley Rivera Mirque,1999-06-09,Colombia,63,67,-70,67,,67,57.6,B,Raw,Juniors,1
M,59,2017-03-22,Miguel Alejandro Pena Gutierrez,2002-05-30,Mexico,56,59,61,61,,61,54.5,B,Raw,Juniors,2
M,59,2017-03-22,Maikol Marino,1999-07-14,Venezuela,52,58,60,60,,60,56.4,B,Raw,Juniors,3
M,59,2017-03-22,Elias Federico Medina,2001-04-29,Argentina,53,-59,-61,53,,53,58.5,B,Raw,Juniors,4
M,65,2017-03-22,Heleno Victor Silva,1999-09-09,Brazil,105,110,115,115,,115,63.6,B,Raw,Juniors,1
M,65,2017-03-22,Danny Leandro Arana Palacios,2002-03-28,Colombia,60,66,70,70,,70,60.8,B,Raw,Juniors,2
M,65,2017-03-22,Gabriel Santos,2000-03-29,Brazil,-65,-66,67,67,,67,63.9,B,Raw,Juniors,3
M,65,2017-03-22,Nicolas Antonio Figueroa,1999-06-18,Argentina,53,61,-67,61,,61,61.7,B,Raw,Juniors,4
M,72,2017-03-22,Oscar Andres Grueso Herrera,1998-03-23,Colombia,105,111,115,115,,115,71,B,Raw,Juniors,1
M,72,2017-03-22,Vinicius de Freitas,1999-07-27,Brazil,92,105,-110,105,,105,68.4,B,Raw,Juniors,2
M,72,2017-03-22,Michael Jesus Olguin,1998-12-22,Argentina,45,60,65,65,,65,68,B,Raw,Juniors,3
M,72,2017-03-22,Pabblo Ismael Farfan,1998-10-23,Argentina,50,55,61,61,,61,70.1,B,Raw,Juniors,4
M,97,2017-03-22,Mateus de Assis Silva,1997-05-27,Brazil,165,175,185,185,,185,96.4,B,Raw,Juniors,1
M,107,2017-03-22,Vitor Afonso Da Silva,1997-03-07,Brazil,-145,-145,-145,,,,104,B,Raw,Juniors,DQ
F,41,2017-03-21,Clara Sarahy Fuentes Monasterio,1997-08-12,Venezuela,-55,55,58,58,,58,35.5,B,Raw,Juniors,1
F,45,2017-03-21,Oriana del Carmen Teran Velazquez,1998-08-01,Venezuela,50,55,-57,55,,55,42.5,B,Raw,Juniors,1
F,50,2017-03-21,Fatima Jazmin Castellanos Rodriguez,2001-09-02,Mexico,42,-46,46,46,,46,49.2,B,Raw,Juniors,1
F,50,2017-03-21,Antonia Fernanda Arcos Romero,2001-11-26,Chile,30,32,-35,32,,32,49.3,B,Raw,Juniors,2
F,61,2017-03-21,Mariana D'Andrea,1998-02-12,Brazil,98,103,105,105,,105,59.8,B,Raw,Juniors,1
F,79,2017-03-22,Maria Rita De Oliveira,1999-01-13,Brazil,55,-60,60,60,,60,75.9,B,Raw,Juniors,2
F,79,2017-03-22,Marion Alejandra Serrano Guajardo,1999-09-08,Chile,87,90,92,92,,92,77.1,B,Raw,Juniors,1
F,86,2017-03-22,Allanis Yolanda Galo Giron,1999-03-26,Honduras,-50,-50,-50,,,,84.3,B,Raw,Juniors,DQ
F,86,2017-03-22,Aunolia Gabriela Valadez Rangel,1997-06-19,Mexico,66,70,-72,70,,70,81.8,B,Raw,Juniors,1
F,86,2017-03-22,Luz Andrea Bernal Martinez,1998-05-14,Mexico,46,-50,-50,46,,46,79.8,B,Raw,Juniors,2
